EESchema Schematic File Version 4
EELAYER 30 0
EELAYER END
$Descr A4 11693 8268
encoding utf-8
Sheet 1 1
Title ""
Date ""
Rev ""
Comp ""
Comment1 ""
Comment2 ""
Comment3 ""
Comment4 ""
$EndDescr
$Comp
L kbd:ProMicro U1
U 1 1 60A0BC95
P 4500 2050
F 0 "U1" H 4500 2887 60  0000 C CNN
F 1 "ProMicro" H 4500 2781 60  0000 C CNN
F 2 "kbd:ProMicro_v3.5" H 4600 1000 60  0001 C CNN
F 3 "" H 4600 1000 60  0000 C CNN
	1    4500 2050
	1    0    0    -1  
$EndComp
$Comp
L MX_Alps_Hybrid:MX-NoLED MX1
U 1 1 60A0E235
P 6600 2900
F 0 "MX1" H 6633 3123 60  0000 C CNN
F 1 "MX-NoLED" H 6633 3049 20  0000 C CNN
F 2 "iotcl:CherryMX_Hotswap-platecuts" H 5975 2875 60  0001 C CNN
F 3 "" H 5975 2875 60  0001 C CNN
	1    6600 2900
	1    0    0    -1  
$EndComp
$Comp
L MX_Alps_Hybrid:MX-NoLED MX2
U 1 1 60A0EB5F
P 7150 2900
F 0 "MX2" H 7183 3123 60  0000 C CNN
F 1 "MX-NoLED" H 7183 3049 20  0000 C CNN
F 2 "iotcl:CherryMX_Hotswap-platecuts" H 6525 2875 60  0001 C CNN
F 3 "" H 6525 2875 60  0001 C CNN
	1    7150 2900
	1    0    0    -1  
$EndComp
$Comp
L MX_Alps_Hybrid:MX-NoLED MX3
U 1 1 60A0EE1D
P 7700 2900
F 0 "MX3" H 7733 3123 60  0000 C CNN
F 1 "MX-NoLED" H 7733 3049 20  0000 C CNN
F 2 "iotcl:CherryMX_Hotswap-platecuts" H 7075 2875 60  0001 C CNN
F 3 "" H 7075 2875 60  0001 C CNN
	1    7700 2900
	1    0    0    -1  
$EndComp
$Comp
L MX_Alps_Hybrid:MX-NoLED MX4
U 1 1 60A0F196
P 8250 2900
F 0 "MX4" H 8283 3123 60  0000 C CNN
F 1 "MX-NoLED" H 8283 3049 20  0000 C CNN
F 2 "iotcl:CherryMX_Hotswap-platecuts" H 7625 2875 60  0001 C CNN
F 3 "" H 7625 2875 60  0001 C CNN
	1    8250 2900
	1    0    0    -1  
$EndComp
$Comp
L MX_Alps_Hybrid:MX-NoLED MX5
U 1 1 60A0F638
P 8800 2900
F 0 "MX5" H 8833 3123 60  0000 C CNN
F 1 "MX-NoLED" H 8833 3049 20  0000 C CNN
F 2 "iotcl:CherryMX_Hotswap-platecuts" H 8175 2875 60  0001 C CNN
F 3 "" H 8175 2875 60  0001 C CNN
	1    8800 2900
	1    0    0    -1  
$EndComp
$Comp
L MX_Alps_Hybrid:MX-NoLED MX6
U 1 1 60A0F9E7
P 9350 2900
F 0 "MX6" H 9383 3123 60  0000 C CNN
F 1 "MX-NoLED" H 9383 3049 20  0000 C CNN
F 2 "iotcl:CherryMX_Hotswap-platecuts" H 8725 2875 60  0001 C CNN
F 3 "" H 8725 2875 60  0001 C CNN
	1    9350 2900
	1    0    0    -1  
$EndComp
$Comp
L MX_Alps_Hybrid:MX-NoLED MX7
U 1 1 60A13EB4
P 6600 3650
F 0 "MX7" H 6633 3873 60  0000 C CNN
F 1 "MX-NoLED" H 6633 3799 20  0000 C CNN
F 2 "iotcl:CherryMX_Hotswap-platecuts" H 5975 3625 60  0001 C CNN
F 3 "" H 5975 3625 60  0001 C CNN
	1    6600 3650
	1    0    0    -1  
$EndComp
$Comp
L MX_Alps_Hybrid:MX-NoLED MX8
U 1 1 60A14122
P 7150 3650
F 0 "MX8" H 7183 3873 60  0000 C CNN
F 1 "MX-NoLED" H 7183 3799 20  0000 C CNN
F 2 "iotcl:CherryMX_Hotswap-platecuts" H 6525 3625 60  0001 C CNN
F 3 "" H 6525 3625 60  0001 C CNN
	1    7150 3650
	1    0    0    -1  
$EndComp
$Comp
L MX_Alps_Hybrid:MX-NoLED MX9
U 1 1 60A14469
P 7700 3650
F 0 "MX9" H 7733 3873 60  0000 C CNN
F 1 "MX-NoLED" H 7733 3799 20  0000 C CNN
F 2 "iotcl:CherryMX_Hotswap-platecuts" H 7075 3625 60  0001 C CNN
F 3 "" H 7075 3625 60  0001 C CNN
	1    7700 3650
	1    0    0    -1  
$EndComp
$Comp
L MX_Alps_Hybrid:MX-NoLED MX10
U 1 1 60A147FD
P 8250 3650
F 0 "MX10" H 8283 3873 60  0000 C CNN
F 1 "MX-NoLED" H 8283 3799 20  0000 C CNN
F 2 "iotcl:CherryMX_Hotswap-platecuts" H 7625 3625 60  0001 C CNN
F 3 "" H 7625 3625 60  0001 C CNN
	1    8250 3650
	1    0    0    -1  
$EndComp
$Comp
L MX_Alps_Hybrid:MX-NoLED MX11
U 1 1 60A14CBA
P 8800 3650
F 0 "MX11" H 8833 3873 60  0000 C CNN
F 1 "MX-NoLED" H 8833 3799 20  0000 C CNN
F 2 "iotcl:CherryMX_Hotswap-platecuts" H 8175 3625 60  0001 C CNN
F 3 "" H 8175 3625 60  0001 C CNN
	1    8800 3650
	1    0    0    -1  
$EndComp
$Comp
L MX_Alps_Hybrid:MX-NoLED MX12
U 1 1 60A1570F
P 9350 3650
F 0 "MX12" H 9383 3873 60  0000 C CNN
F 1 "MX-NoLED" H 9383 3799 20  0000 C CNN
F 2 "iotcl:CherryMX_Hotswap-platecuts" H 8725 3625 60  0001 C CNN
F 3 "" H 8725 3625 60  0001 C CNN
	1    9350 3650
	1    0    0    -1  
$EndComp
$Comp
L MX_Alps_Hybrid:MX-NoLED MX13
U 1 1 60A15EC8
P 7150 4500
F 0 "MX13" H 7183 4723 60  0000 C CNN
F 1 "MX-NoLED" H 7183 4649 20  0000 C CNN
F 2 "iotcl:CherryMX_Hotswap-platecuts" H 6525 4475 60  0001 C CNN
F 3 "" H 6525 4475 60  0001 C CNN
	1    7150 4500
	1    0    0    -1  
$EndComp
$Comp
L MX_Alps_Hybrid:MX-NoLED MX14
U 1 1 60A16200
P 7700 4500
F 0 "MX14" H 7733 4723 60  0000 C CNN
F 1 "MX-NoLED" H 7733 4649 20  0000 C CNN
F 2 "iotcl:CherryMX_Hotswap-platecuts" H 7075 4475 60  0001 C CNN
F 3 "" H 7075 4475 60  0001 C CNN
	1    7700 4500
	1    0    0    -1  
$EndComp
$Comp
L MX_Alps_Hybrid:MX-NoLED MX15
U 1 1 60A16990
P 8250 4500
F 0 "MX15" H 8283 4723 60  0000 C CNN
F 1 "MX-NoLED" H 8283 4649 20  0000 C CNN
F 2 "iotcl:CherryMX_Hotswap-platecuts" H 7625 4475 60  0001 C CNN
F 3 "" H 7625 4475 60  0001 C CNN
	1    8250 4500
	1    0    0    -1  
$EndComp
$Comp
L MX_Alps_Hybrid:MX-NoLED MX16
U 1 1 60A16ECF
P 8800 4500
F 0 "MX16" H 8833 4723 60  0000 C CNN
F 1 "MX-NoLED" H 8833 4649 20  0000 C CNN
F 2 "iotcl:CherryMX_Hotswap-platecuts" H 8175 4475 60  0001 C CNN
F 3 "" H 8175 4475 60  0001 C CNN
	1    8800 4500
	1    0    0    -1  
$EndComp
Wire Wire Line
	6750 2850 6900 2850
Wire Wire Line
	6900 3600 6750 3600
Wire Wire Line
	7300 2850 7450 2850
Wire Wire Line
	7450 3600 7300 3600
Wire Wire Line
	7850 2850 8000 2850
Wire Wire Line
	8000 3600 7850 3600
Wire Wire Line
	8400 2850 8550 2850
Wire Wire Line
	8550 3600 8400 3600
Wire Wire Line
	8950 2850 9100 2850
Wire Wire Line
	9100 3600 8950 3600
Wire Wire Line
	9500 2850 10050 2850
Wire Wire Line
	10050 3600 9500 3600
Wire Wire Line
	7300 4450 7450 4450
Wire Wire Line
	7850 4450 8000 4450
Wire Wire Line
	8400 4450 8550 4450
Wire Wire Line
	8950 4450 9100 4450
Wire Wire Line
	6900 2850 6900 3600
Wire Wire Line
	7450 2850 7450 3600
Wire Wire Line
	8000 2850 8000 3600
Wire Wire Line
	8550 2850 8550 3600
Wire Wire Line
	9100 2850 9100 3600
Wire Wire Line
	10050 2850 10050 3600
$Comp
L Device:D_Small D1
U 1 1 60A309D8
P 6450 3200
F 0 "D1" V 6496 3130 50  0000 R CNN
F 1 "D_Small" V 6405 3130 50  0000 R CNN
F 2 "kbd:D3_TH" V 6450 3200 50  0001 C CNN
F 3 "~" V 6450 3200 50  0001 C CNN
	1    6450 3200
	0    -1   -1   0   
$EndComp
$Comp
L Device:D_Small D2
U 1 1 60A319CB
P 7000 3200
F 0 "D2" V 7046 3130 50  0000 R CNN
F 1 "D_Small" V 6955 3130 50  0000 R CNN
F 2 "kbd:D3_TH" V 7000 3200 50  0001 C CNN
F 3 "~" V 7000 3200 50  0001 C CNN
	1    7000 3200
	0    -1   -1   0   
$EndComp
$Comp
L Device:D_Small D3
U 1 1 60A32435
P 7550 3200
F 0 "D3" V 7596 3130 50  0000 R CNN
F 1 "D_Small" V 7505 3130 50  0000 R CNN
F 2 "kbd:D3_TH" V 7550 3200 50  0001 C CNN
F 3 "~" V 7550 3200 50  0001 C CNN
	1    7550 3200
	0    -1   -1   0   
$EndComp
$Comp
L Device:D_Small D4
U 1 1 60A328AE
P 8100 3200
F 0 "D4" V 8146 3130 50  0000 R CNN
F 1 "D_Small" V 8055 3130 50  0000 R CNN
F 2 "kbd:D3_TH" V 8100 3200 50  0001 C CNN
F 3 "~" V 8100 3200 50  0001 C CNN
	1    8100 3200
	0    -1   -1   0   
$EndComp
$Comp
L Device:D_Small D5
U 1 1 60A32EF0
P 8650 3200
F 0 "D5" V 8696 3130 50  0000 R CNN
F 1 "D_Small" V 8605 3130 50  0000 R CNN
F 2 "kbd:D3_TH" V 8650 3200 50  0001 C CNN
F 3 "~" V 8650 3200 50  0001 C CNN
	1    8650 3200
	0    -1   -1   0   
$EndComp
$Comp
L Device:D_Small D6
U 1 1 60A3348F
P 9200 3200
F 0 "D6" V 9246 3130 50  0000 R CNN
F 1 "D_Small" V 9155 3130 50  0000 R CNN
F 2 "kbd:D3_TH" V 9200 3200 50  0001 C CNN
F 3 "~" V 9200 3200 50  0001 C CNN
	1    9200 3200
	0    -1   -1   0   
$EndComp
$Comp
L Device:D_Small D7
U 1 1 60A33A15
P 6450 3950
F 0 "D7" V 6496 3880 50  0000 R CNN
F 1 "D_Small" V 6405 3880 50  0000 R CNN
F 2 "kbd:D3_TH" V 6450 3950 50  0001 C CNN
F 3 "~" V 6450 3950 50  0001 C CNN
	1    6450 3950
	0    -1   -1   0   
$EndComp
$Comp
L Device:D_Small D8
U 1 1 60A340F8
P 7000 3950
F 0 "D8" V 7046 3880 50  0000 R CNN
F 1 "D_Small" V 6955 3880 50  0000 R CNN
F 2 "kbd:D3_TH" V 7000 3950 50  0001 C CNN
F 3 "~" V 7000 3950 50  0001 C CNN
	1    7000 3950
	0    -1   -1   0   
$EndComp
$Comp
L Device:D_Small D9
U 1 1 60A34891
P 7550 3950
F 0 "D9" V 7596 3880 50  0000 R CNN
F 1 "D_Small" V 7505 3880 50  0000 R CNN
F 2 "kbd:D3_TH" V 7550 3950 50  0001 C CNN
F 3 "~" V 7550 3950 50  0001 C CNN
	1    7550 3950
	0    -1   -1   0   
$EndComp
$Comp
L Device:D_Small D10
U 1 1 60A34E92
P 8100 3950
F 0 "D10" V 8146 3880 50  0000 R CNN
F 1 "D_Small" V 8055 3880 50  0000 R CNN
F 2 "kbd:D3_TH" V 8100 3950 50  0001 C CNN
F 3 "~" V 8100 3950 50  0001 C CNN
	1    8100 3950
	0    -1   -1   0   
$EndComp
$Comp
L Device:D_Small D11
U 1 1 60A3542C
P 8650 3950
F 0 "D11" V 8696 3880 50  0000 R CNN
F 1 "D_Small" V 8605 3880 50  0000 R CNN
F 2 "kbd:D3_TH" V 8650 3950 50  0001 C CNN
F 3 "~" V 8650 3950 50  0001 C CNN
	1    8650 3950
	0    -1   -1   0   
$EndComp
$Comp
L Device:D_Small D12
U 1 1 60A35A4A
P 9200 3950
F 0 "D12" V 9246 3880 50  0000 R CNN
F 1 "D_Small" V 9155 3880 50  0000 R CNN
F 2 "kbd:D3_TH" V 9200 3950 50  0001 C CNN
F 3 "~" V 9200 3950 50  0001 C CNN
	1    9200 3950
	0    -1   -1   0   
$EndComp
$Comp
L Device:D_Small D13
U 1 1 60A36097
P 7000 4800
F 0 "D13" V 7046 4730 50  0000 R CNN
F 1 "D_Small" V 6955 4730 50  0000 R CNN
F 2 "kbd:D3_TH" V 7000 4800 50  0001 C CNN
F 3 "~" V 7000 4800 50  0001 C CNN
	1    7000 4800
	0    -1   -1   0   
$EndComp
$Comp
L Device:D_Small D14
U 1 1 60A366C3
P 7550 4800
F 0 "D14" V 7596 4730 50  0000 R CNN
F 1 "D_Small" V 7505 4730 50  0000 R CNN
F 2 "kbd:D3_TH" V 7550 4800 50  0001 C CNN
F 3 "~" V 7550 4800 50  0001 C CNN
	1    7550 4800
	0    -1   -1   0   
$EndComp
$Comp
L Device:D_Small D15
U 1 1 60A370F7
P 8100 4800
F 0 "D15" V 8146 4730 50  0000 R CNN
F 1 "D_Small" V 8055 4730 50  0000 R CNN
F 2 "kbd:D3_TH" V 8100 4800 50  0001 C CNN
F 3 "~" V 8100 4800 50  0001 C CNN
	1    8100 4800
	0    -1   -1   0   
$EndComp
$Comp
L Device:D_Small D16
U 1 1 60A376F5
P 8650 4800
F 0 "D16" V 8696 4730 50  0000 R CNN
F 1 "D_Small" V 8605 4730 50  0000 R CNN
F 2 "kbd:D3_TH" V 8650 4800 50  0001 C CNN
F 3 "~" V 8650 4800 50  0001 C CNN
	1    8650 4800
	0    -1   -1   0   
$EndComp
Wire Wire Line
	6550 3050 6450 3050
Wire Wire Line
	6450 3050 6450 3100
Wire Wire Line
	7100 3050 7000 3050
Wire Wire Line
	7000 3050 7000 3100
Wire Wire Line
	7650 3050 7550 3050
Wire Wire Line
	7550 3050 7550 3100
Wire Wire Line
	8200 3050 8100 3050
Wire Wire Line
	8100 3050 8100 3100
Wire Wire Line
	8750 3050 8650 3050
Wire Wire Line
	8650 3050 8650 3100
Wire Wire Line
	9300 3050 9200 3050
Wire Wire Line
	9200 3050 9200 3100
Wire Wire Line
	6550 3800 6450 3800
Wire Wire Line
	6450 3800 6450 3850
Wire Wire Line
	7100 3800 7000 3800
Wire Wire Line
	7000 3800 7000 3850
Wire Wire Line
	7650 3800 7550 3800
Wire Wire Line
	7550 3800 7550 3850
Wire Wire Line
	8200 3800 8100 3800
Wire Wire Line
	8100 3800 8100 3850
Wire Wire Line
	8750 3800 8650 3800
Wire Wire Line
	8650 3800 8650 3850
Wire Wire Line
	9300 3800 9200 3800
Wire Wire Line
	9200 3800 9200 3850
Wire Wire Line
	7100 4650 7000 4650
Wire Wire Line
	7000 4650 7000 4700
Wire Wire Line
	7650 4650 7550 4650
Wire Wire Line
	7550 4650 7550 4700
Wire Wire Line
	8200 4650 8100 4650
Wire Wire Line
	8100 4650 8100 4700
Wire Wire Line
	8750 4650 8650 4650
Wire Wire Line
	8650 4650 8650 4700
Wire Wire Line
	9200 3300 9200 3350
Wire Wire Line
	9200 3350 8650 3350
Wire Wire Line
	8650 3350 8650 3300
Wire Wire Line
	8100 3300 8100 3350
Wire Wire Line
	8100 3350 8650 3350
Connection ~ 8650 3350
Wire Wire Line
	7550 3300 7550 3350
Wire Wire Line
	7550 3350 8100 3350
Connection ~ 8100 3350
Wire Wire Line
	7000 3300 7000 3350
Wire Wire Line
	7000 3350 7550 3350
Connection ~ 7550 3350
Wire Wire Line
	6450 3300 6450 3350
Wire Wire Line
	6450 3350 7000 3350
Connection ~ 7000 3350
Wire Wire Line
	6450 4050 6450 4100
Wire Wire Line
	6450 4100 7000 4100
Wire Wire Line
	7000 4100 7000 4050
Wire Wire Line
	7550 4050 7550 4100
Wire Wire Line
	7550 4100 7000 4100
Connection ~ 7000 4100
Wire Wire Line
	8100 4050 8100 4100
Wire Wire Line
	8100 4100 7550 4100
Connection ~ 7550 4100
Wire Wire Line
	8650 4050 8650 4100
Wire Wire Line
	8650 4100 8100 4100
Connection ~ 8100 4100
Wire Wire Line
	9200 4050 9200 4100
Wire Wire Line
	9200 4100 8650 4100
Connection ~ 8650 4100
Wire Wire Line
	7000 4900 7000 4950
Wire Wire Line
	7000 4950 7550 4950
Wire Wire Line
	7550 4950 7550 4900
Wire Wire Line
	7550 4950 8100 4950
Wire Wire Line
	8100 4950 8100 4900
Connection ~ 7550 4950
Wire Wire Line
	8100 4950 8650 4950
Wire Wire Line
	8650 4950 8650 4900
Connection ~ 8100 4950
Wire Wire Line
	7450 3600 7450 4450
Connection ~ 7450 3600
Wire Wire Line
	8000 3600 8000 4450
Connection ~ 8000 3600
Wire Wire Line
	8550 3600 8550 4450
Connection ~ 8550 3600
Wire Wire Line
	9100 3600 9100 4450
Connection ~ 9100 3600
Connection ~ 6900 3600
$Comp
L Device:Rotary_Encoder_Switch SW2
U 1 1 60A7D867
P 9600 4550
F 0 "SW2" H 9600 4917 50  0000 C CNN
F 1 "Rotary_Encoder_Switch" H 9600 4826 50  0000 C CNN
F 2 "Rotary_Encoder:RotaryEncoder_Alps_EC11E-Switch_Vertical_H20mm" H 9450 4710 50  0001 C CNN
F 3 "~" H 9600 4810 50  0001 C CNN
	1    9600 4550
	1    0    0    -1  
$EndComp
$Comp
L Device:D_Small D17
U 1 1 60A87FD1
P 6550 4800
F 0 "D17" V 6596 4730 50  0000 R CNN
F 1 "D_Small" V 6505 4730 50  0000 R CNN
F 2 "kbd:D3_TH" V 6550 4800 50  0001 C CNN
F 3 "~" V 6550 4800 50  0001 C CNN
	1    6550 4800
	0    -1   -1   0   
$EndComp
$Comp
L Device:Rotary_Encoder_Switch SW1
U 1 1 60A628C9
P 6150 4550
F 0 "SW1" H 6150 4917 50  0000 C CNN
F 1 "Rotary_Encoder_Switch" H 6150 4826 50  0000 C CNN
F 2 "Rotary_Encoder:RotaryEncoder_Alps_EC11E-Switch_Vertical_H20mm" H 6000 4710 50  0001 C CNN
F 3 "~" H 6150 4810 50  0001 C CNN
	1    6150 4550
	1    0    0    -1  
$EndComp
$Comp
L Device:D_Small D18
U 1 1 60AAC9CE
P 9950 4800
F 0 "D18" V 9996 4730 50  0000 R CNN
F 1 "D_Small" V 9905 4730 50  0000 R CNN
F 2 "kbd:D3_TH" V 9950 4800 50  0001 C CNN
F 3 "~" V 9950 4800 50  0001 C CNN
	1    9950 4800
	0    -1   -1   0   
$EndComp
Wire Wire Line
	6550 4900 6550 4950
Wire Wire Line
	6550 4950 7000 4950
Connection ~ 7000 4950
$Comp
L power:GND #GND0101
U 1 1 60AB782F
P 9100 4550
F 0 "#GND0101" H 9100 4300 50  0001 C CNN
F 1 "GND" H 9105 4377 50  0000 C CNN
F 2 "" H 9100 4550 50  0001 C CNN
F 3 "" H 9100 4550 50  0001 C CNN
	1    9100 4550
	0    1    1    0   
$EndComp
$Comp
L power:GND #PWR0102
U 1 1 60B37DE6
P 5700 4550
F 0 "#PWR0102" H 5700 4300 50  0001 C CNN
F 1 "GND" H 5705 4377 50  0000 C CNN
F 2 "" H 5700 4550 50  0001 C CNN
F 3 "" H 5700 4550 50  0001 C CNN
	1    5700 4550
	0    1    1    0   
$EndComp
Wire Wire Line
	5850 4450 3700 4450
Wire Wire Line
	9300 4450 9200 4450
Wire Wire Line
	9200 4450 9200 5150
Wire Wire Line
	9200 5150 10550 5150
Wire Wire Line
	10550 5150 10550 2500
Wire Wire Line
	9300 4650 9300 5050
Wire Wire Line
	9300 5050 10450 5050
Wire Wire Line
	10450 5050 10450 2600
Wire Wire Line
	10450 2600 5200 2600
Wire Wire Line
	10550 2500 5200 2500
Wire Wire Line
	3800 2500 3700 2500
Wire Wire Line
	3700 2500 3700 4450
$Comp
L power:GND #GND0102
U 1 1 60BD913E
P 5750 1600
F 0 "#GND0102" H 5750 1350 50  0001 C CNN
F 1 "GND" V 5755 1472 50  0000 R CNN
F 2 "" H 5750 1600 50  0001 C CNN
F 3 "" H 5750 1600 50  0001 C CNN
	1    5750 1600
	0    -1   -1   0   
$EndComp
$Comp
L power:GND #PWR0104
U 1 1 60BDE941
P 3150 1700
F 0 "#PWR0104" H 3150 1450 50  0001 C CNN
F 1 "GND" V 3155 1572 50  0000 R CNN
F 2 "" H 3150 1700 50  0001 C CNN
F 3 "" H 3150 1700 50  0001 C CNN
	1    3150 1700
	0    1    1    0   
$EndComp
Wire Wire Line
	3800 1700 3200 1700
Wire Wire Line
	3800 1800 3200 1800
Wire Wire Line
	3200 1800 3200 1700
Wire Wire Line
	10050 2850 10050 1900
Wire Wire Line
	10050 1900 5200 1900
Connection ~ 10050 2850
Wire Wire Line
	9100 2850 9100 2000
Wire Wire Line
	9100 2000 5200 2000
Connection ~ 9100 2850
Wire Wire Line
	8550 2850 8550 2100
Wire Wire Line
	8550 2100 5200 2100
Connection ~ 8550 2850
Wire Wire Line
	8000 2850 8000 2200
Wire Wire Line
	8000 2200 5200 2200
Connection ~ 8000 2850
Wire Wire Line
	7450 2850 7450 2300
Wire Wire Line
	7450 2300 5200 2300
Connection ~ 7450 2850
Wire Wire Line
	6900 2850 6900 2400
Wire Wire Line
	6900 2400 5200 2400
Connection ~ 6900 2850
Wire Wire Line
	3600 4950 3600 2400
Wire Wire Line
	3600 2400 3800 2400
Connection ~ 6550 4950
Wire Wire Line
	6450 4100 3500 4100
Wire Wire Line
	3500 4100 3500 2300
Wire Wire Line
	3500 2300 3800 2300
Connection ~ 6450 4100
Wire Wire Line
	6450 3350 3400 3350
Wire Wire Line
	3400 3350 3400 2200
Wire Wire Line
	3400 2200 3800 2200
Connection ~ 6450 3350
$Comp
L Connector:Conn_01x16_Male J1
U 1 1 60C64E23
P 1600 2800
F 0 "J1" H 1708 3681 50  0000 C CNN
F 1 "Conn_01x16_Male" H 1708 3590 50  0000 C CNN
F 2 "Connector_PinHeader_2.54mm:PinHeader_1x16_P2.54mm_Vertical" H 1600 2800 50  0001 C CNN
F 3 "~" H 1600 2800 50  0001 C CNN
	1    1600 2800
	1    0    0    -1  
$EndComp
Wire Wire Line
	3600 4950 6550 4950
Text GLabel 10650 2400 2    50   Input ~ 0
COL0
Text GLabel 10650 2300 2    50   Input ~ 0
COL1
Text GLabel 10650 2200 2    50   Input ~ 0
COL2
Text GLabel 10650 2100 2    50   Input ~ 0
COL3
Text GLabel 10650 2000 2    50   Input ~ 0
COL4
Text GLabel 10650 1900 2    50   Input ~ 0
COL5
Wire Wire Line
	10650 2400 6900 2400
Connection ~ 6900 2400
Wire Wire Line
	10650 2300 7450 2300
Connection ~ 7450 2300
Wire Wire Line
	10650 2200 8000 2200
Connection ~ 8000 2200
Wire Wire Line
	10650 2100 8550 2100
Connection ~ 8550 2100
Wire Wire Line
	10650 2000 9100 2000
Connection ~ 9100 2000
Wire Wire Line
	10650 1900 10050 1900
Connection ~ 10050 1900
Text GLabel 3350 3350 0    50   Input ~ 0
ROW0
Text GLabel 3350 4100 0    50   Input ~ 0
ROW1
Text GLabel 3350 4950 0    50   Input ~ 0
ROW2
Wire Wire Line
	3350 4950 3600 4950
Connection ~ 3600 4950
Wire Wire Line
	3350 4100 3500 4100
Connection ~ 3500 4100
Wire Wire Line
	3350 3350 3400 3350
Connection ~ 3400 3350
Text GLabel 3350 4450 0    50   Input ~ 0
A1
Text GLabel 3350 4650 0    50   Input ~ 0
B1
Text GLabel 10650 2600 2    50   Input ~ 0
B2
Text GLabel 10650 2500 2    50   Input ~ 0
A2
$Comp
L power:GND #GND0103
U 1 1 60D0B71B
P 2050 2100
F 0 "#GND0103" H 2050 1850 50  0001 C CNN
F 1 "GND" V 2055 1972 50  0000 R CNN
F 2 "" H 2050 2100 50  0001 C CNN
F 3 "" H 2050 2100 50  0001 C CNN
	1    2050 2100
	0    -1   -1   0   
$EndComp
Wire Wire Line
	3700 4450 3350 4450
Connection ~ 3700 4450
Text GLabel 2100 2300 2    50   Input ~ 0
A1
Text GLabel 2100 2400 2    50   Input ~ 0
B1
Text GLabel 2100 2500 2    50   Input ~ 0
ROW0
Text GLabel 2100 2600 2    50   Input ~ 0
ROW1
Text GLabel 2100 2700 2    50   Input ~ 0
ROW2
Text GLabel 2100 2800 2    50   Input ~ 0
COL0
Text GLabel 2100 2900 2    50   Input ~ 0
COL1
Text GLabel 2100 3000 2    50   Input ~ 0
COL2
Text GLabel 2100 3100 2    50   Input ~ 0
COL3
Text GLabel 2100 3200 2    50   Input ~ 0
COL4
Text GLabel 2100 3300 2    50   Input ~ 0
COL5
Text GLabel 2100 3400 2    50   Input ~ 0
A2
Text GLabel 2100 3500 2    50   Input ~ 0
B2
Text GLabel 2100 2200 2    50   Input ~ 0
RST
Wire Wire Line
	2100 2200 1800 2200
Wire Wire Line
	1800 2300 2100 2300
Wire Wire Line
	2100 2400 1800 2400
Wire Wire Line
	1800 2500 2100 2500
Wire Wire Line
	2100 2600 1800 2600
Wire Wire Line
	1800 2700 2100 2700
Wire Wire Line
	2100 2800 1800 2800
Wire Wire Line
	1800 2900 2100 2900
Wire Wire Line
	2100 3000 1800 3000
Wire Wire Line
	1800 3100 2100 3100
Wire Wire Line
	2100 3200 1800 3200
Wire Wire Line
	1800 3300 2100 3300
Wire Wire Line
	2100 3400 1800 3400
Wire Wire Line
	1800 3500 2100 3500
Text GLabel 5800 1700 2    50   Input ~ 0
RST
Wire Wire Line
	5200 1700 5800 1700
NoConn ~ 3800 1500
NoConn ~ 3800 1600
NoConn ~ 3800 1900
NoConn ~ 3800 2100
NoConn ~ 5200 1500
NoConn ~ 5200 1800
NoConn ~ 1800 3600
Wire Wire Line
	2050 2100 1950 2100
Wire Wire Line
	5750 1600 5200 1600
Wire Wire Line
	3150 1700 3200 1700
Connection ~ 3200 1700
$Comp
L power:PWR_FLAG #FLG0101
U 1 1 60F6297F
P 1950 1950
F 0 "#FLG0101" H 1950 2025 50  0001 C CNN
F 1 "PWR_FLAG" H 1950 2123 50  0000 C CNN
F 2 "" H 1950 1950 50  0001 C CNN
F 3 "~" H 1950 1950 50  0001 C CNN
	1    1950 1950
	1    0    0    -1  
$EndComp
Wire Wire Line
	1950 1950 1950 2100
Connection ~ 1950 2100
Wire Wire Line
	1950 2100 1800 2100
Wire Wire Line
	10650 2500 10550 2500
Connection ~ 10550 2500
Wire Wire Line
	10650 2600 10450 2600
Connection ~ 10450 2600
Wire Wire Line
	6900 4650 6450 4650
Wire Wire Line
	6900 3600 6900 4650
Wire Wire Line
	6450 4450 6550 4450
Wire Wire Line
	6550 4450 6550 4700
Wire Wire Line
	3800 2600 3800 4650
Wire Wire Line
	5850 4650 3800 4650
Wire Wire Line
	3800 4650 3350 4650
Connection ~ 3800 4650
Wire Wire Line
	5700 4550 5850 4550
Wire Wire Line
	9900 4450 9950 4450
Wire Wire Line
	9950 4450 9950 4700
Wire Wire Line
	9950 4900 9950 4950
Wire Wire Line
	9950 4950 8650 4950
Connection ~ 8650 4950
Wire Wire Line
	9900 4650 10050 4650
Wire Wire Line
	10050 4650 10050 3600
Connection ~ 10050 3600
Wire Wire Line
	9100 4550 9300 4550
Text GLabel 3700 2000 0    50   Input ~ 0
D10
Wire Wire Line
	3800 2000 3700 2000
Text GLabel 8300 3800 2    50   Input ~ 0
D10
Wire Wire Line
	8300 3800 8200 3800
Connection ~ 8200 3800
$EndSCHEMATC
