(module CherryMX_Hotswap-plate (layer F.Cu) (tedit 60AD5F56)
  (fp_text reference REF** (at 7.1 8.2) (layer F.SilkS) hide
    (effects (font (size 1 1) (thickness 0.15)))
  )
  (fp_text value KEY_SWITCH (at -4.8 8.3) (layer F.Fab) hide
    (effects (font (size 1 1) (thickness 0.15)))
  )
  (fp_line (start -9.525 -9.525) (end 9.525 -9.525) (layer Dwgs.User) (width 0.15))
  (fp_line (start 9.525 -9.525) (end 9.525 9.525) (layer Dwgs.User) (width 0.15))
  (fp_line (start 9.525 9.525) (end -9.525 9.525) (layer Dwgs.User) (width 0.15))
  (fp_line (start -9.525 9.525) (end -9.525 -9.525) (layer Dwgs.User) (width 0.15))
  (pad "" np_thru_hole oval (at 0 6.85) (size 14 0.3) (drill oval 14 0.3) (layers *.Cu *.Mask))
  (pad "" np_thru_hole oval (at 6.85 0 90) (size 14 0.3) (drill oval 14 0.3) (layers *.Cu *.Mask))
  (pad "" np_thru_hole oval (at 0 -6.85 180) (size 14 0.3) (drill oval 14 0.3) (layers *.Cu *.Mask))
  (pad "" np_thru_hole oval (at -6.85 0 90) (size 14 0.3) (drill oval 14 0.3) (layers *.Cu *.Mask))
  (model /Users/foostan/src/github.com/foostan/kbd/kicad-packages3D/kbd.3dshapes/Kailh-CherryMX-Socket.step
    (offset (xyz -1.3 7.6 -3.6))
    (scale (xyz 1 1 1))
    (rotate (xyz 0 0 180))
  )
)
