(module marconi16 (layer F.Cu) (tedit 60AD5CAA)
  (fp_text reference REF_MARCONI (at 0 0.5) (layer F.SilkS) hide
    (effects (font (size 1 1) (thickness 0.15)))
  )
  (fp_text value marconi16 (at 0 -0.5) (layer F.Fab)
    (effects (font (size 1 1) (thickness 0.15)))
  )
  (fp_line (start -11.62 -2.92) (end -11.62 -2.1613) (layer F.Mask) (width 0.2))
  (fp_line (start -11.5871 -3.24) (end -11.62 -2.92) (layer F.Mask) (width 0.2))
  (fp_line (start -11.4808 -3.464) (end -11.5871 -3.24) (layer F.Mask) (width 0.2))
  (fp_line (start -11.2904 -3.601901) (end -11.4808 -3.464) (layer F.Mask) (width 0.2))
  (fp_line (start -11.29 -3.602) (end -11.2904 -3.601901) (layer F.Mask) (width 0.2))
  (fp_line (start -11.2894 -3.602301) (end -11.29 -3.602) (layer F.Mask) (width 0.2))
  (fp_line (start -10.975101 -3.6546) (end -11.2894 -3.602301) (layer F.Mask) (width 0.2))
  (fp_line (start 4.6697 -2.421301) (end 4.8633 -2.2214) (layer F.Mask) (width 0.2))
  (fp_line (start 0.377 -2.8225) (end 0.3584 -2.8088) (layer F.Mask) (width 0.2))
  (fp_line (start 4.6988 -2.3955) (end 4.698 -2.396501) (layer F.Mask) (width 0.2))
  (fp_line (start -11.62 -2.1613) (end -11.6182 -2.1574) (layer F.Mask) (width 0.2))
  (fp_line (start -11.5858 -3.201601) (end -11.585501 -3.2026) (layer F.Mask) (width 0.2))
  (fp_line (start -11.585901 -3.2007) (end -11.5858 -3.201601) (layer F.Mask) (width 0.2))
  (fp_line (start 2.0311 -2.8041) (end 2.1685 -2.8524) (layer F.Mask) (width 0.2))
  (fp_line (start -11.6085 -2.92) (end -11.585901 -3.2007) (layer F.Mask) (width 0.2))
  (fp_line (start -1.939 -2.6518) (end -1.9371 -2.654101) (layer F.Mask) (width 0.2))
  (fp_line (start -11.6085 -2.1613) (end -11.6085 -2.92) (layer F.Mask) (width 0.2))
  (fp_line (start -0.271401 -2.17) (end -0.4186 -2.1865) (layer F.Mask) (width 0.2))
  (fp_line (start -11.6124 -2.1565) (end -11.6085 -2.1613) (layer F.Mask) (width 0.2))
  (fp_line (start -11.6144 -2.155401) (end -11.6124 -2.1565) (layer F.Mask) (width 0.2))
  (fp_line (start 2.9226 -2.695201) (end 2.9223 -2.696) (layer F.Mask) (width 0.2))
  (fp_line (start -11.6182 -2.1574) (end -11.6144 -2.155401) (layer F.Mask) (width 0.2))
  (fp_line (start -11.585501 -3.2026) (end -11.484 -3.4361) (layer F.Mask) (width 0.2))
  (fp_line (start -0.6781 -2.2297) (end -0.745 -2.201) (layer F.Mask) (width 0.2))
  (fp_line (start -8.424 -2.4539) (end -8.4275 -2.519701) (layer F.Mask) (width 0.2))
  (fp_line (start -11.280701 -3.5911) (end -10.975101 -3.640001) (layer F.Mask) (width 0.2))
  (fp_line (start -11.2811 -3.591) (end -11.280701 -3.5911) (layer F.Mask) (width 0.2))
  (fp_line (start -0.6977 -2.3401) (end -0.6483 -2.2516) (layer F.Mask) (width 0.2))
  (fp_line (start 2.5303 -2.8692) (end 2.6673 -2.8524) (layer F.Mask) (width 0.2))
  (fp_line (start 2.8 -2.805701) (end 2.7985 -2.8071) (layer F.Mask) (width 0.2))
  (fp_line (start 4.6033 -2.620701) (end 4.5771 -2.8632) (layer F.Mask) (width 0.2))
  (fp_line (start -11.281601 -3.5907) (end -11.2811 -3.591) (layer F.Mask) (width 0.2))
  (fp_line (start -3.0538 -2.449601) (end -3.0572 -2.5196) (layer F.Mask) (width 0.2))
  (fp_line (start 0.3356 -2.7525) (end 0.3368 -2.7512) (layer F.Mask) (width 0.2))
  (fp_line (start 0.6377 -2.8722) (end 1.8714 -2.8722) (layer F.Mask) (width 0.2))
  (fp_line (start -11.484 -3.4361) (end -11.281601 -3.5907) (layer F.Mask) (width 0.2))
  (fp_line (start -2.0688 -2.8226) (end -2.0629 -2.82) (layer F.Mask) (width 0.2))
  (fp_line (start 2.9702 -2.5287) (end 2.9286 -2.7088) (layer F.Mask) (width 0.2))
  (fp_line (start -8.424 -2.5854) (end -8.424 -2.5854) (layer F.Mask) (width 0.2))
  (fp_line (start -11.4835 -3.437101) (end -11.484 -3.4361) (layer F.Mask) (width 0.2))
  (fp_line (start -0.3808 -2.8698) (end -0.5685 -2.814301) (layer F.Mask) (width 0.2))
  (fp_line (start 1.8734 -2.1574) (end 1.8772 -2.155401) (layer F.Mask) (width 0.2))
  (fp_line (start -11.4846 -3.4357) (end -11.4835 -3.437101) (layer F.Mask) (width 0.2))
  (fp_line (start -11.484 -3.4361) (end -11.4846 -3.4357) (layer F.Mask) (width 0.2))
  (fp_line (start 6.405799 -2.2558) (end 6.4091 -2.26) (layer F.Mask) (width 0.2))
  (fp_line (start 1.8864 -2.5923) (end 1.9143 -2.6863) (layer F.Mask) (width 0.2))
  (fp_line (start -10.975101 -3.640001) (end -10.6718 -3.5907) (layer F.Mask) (width 0.2))
  (fp_line (start -10.3705 -3.2013) (end -10.3706 -3.2032) (layer F.Mask) (width 0.2))
  (fp_line (start 4.1024 -2.1672) (end 4.0874 -2.1672) (layer F.Mask) (width 0.2))
  (fp_line (start -3.0499 -2.4311) (end -3.0305 -2.3401) (layer F.Mask) (width 0.2))
  (fp_line (start 2.9772 -2.398201) (end 2.9702 -2.4929) (layer F.Mask) (width 0.2))
  (fp_line (start 4.562499 -2.8632) (end 4.5466 -2.6566) (layer F.Mask) (width 0.2))
  (fp_line (start 1.9164 -2.7556) (end 1.8858 -2.8782) (layer F.Mask) (width 0.2))
  (fp_line (start 6.3958 -2.2463) (end 6.399799 -2.249201) (layer F.Mask) (width 0.2))
  (fp_line (start 0.2685 -2.2412) (end 0.1181 -2.1872) (layer F.Mask) (width 0.2))
  (fp_line (start 0.3342 -2.7538) (end 0.3356 -2.7525) (layer F.Mask) (width 0.2))
  (fp_line (start -10.469101 -3.4357) (end -10.3705 -3.2013) (layer F.Mask) (width 0.2))
  (fp_line (start -10.4672 -3.4337) (end -10.469101 -3.4357) (layer F.Mask) (width 0.2))
  (fp_line (start -8.424 -2.5854) (end -8.439 -2.5196) (layer F.Mask) (width 0.2))
  (fp_line (start -10.4697 -3.437101) (end -10.4672 -3.4337) (layer F.Mask) (width 0.2))
  (fp_line (start 0.4076 -2.631001) (end 0.4199 -2.519701) (layer F.Mask) (width 0.2))
  (fp_line (start 0.1163 -2.1869) (end 0.1148 -2.1866) (layer F.Mask) (width 0.2))
  (fp_line (start -10.469101 -3.4357) (end -10.4697 -3.437101) (layer F.Mask) (width 0.2))
  (fp_line (start -10.6716 -3.5907) (end -10.469101 -3.4357) (layer F.Mask) (width 0.2))
  (fp_line (start -10.6718 -3.5907) (end -10.6716 -3.5907) (layer F.Mask) (width 0.2))
  (fp_line (start 0.0765 -2.8726) (end -0.1508 -2.8868) (layer F.Mask) (width 0.2))
  (fp_line (start -10.3706 -3.2032) (end -10.37 -3.2002) (layer F.Mask) (width 0.2))
  (fp_line (start 6.2322 -2.1778) (end 6.2317 -2.1777) (layer F.Mask) (width 0.2))
  (fp_line (start 2.8 -2.805701) (end 2.9226 -2.695201) (layer F.Mask) (width 0.2))
  (fp_line (start -1.9753 -2.7739) (end -1.9769 -2.7754) (layer F.Mask) (width 0.2))
  (fp_line (start 6.4171 -2.274801) (end 6.4164 -2.2733) (layer F.Mask) (width 0.2))
  (fp_line (start -10.332 -2.1591) (end -10.3301 -2.1613) (layer F.Mask) (width 0.2))
  (fp_line (start -2.7134 -2.169601) (end -2.4834 -2.155401) (layer F.Mask) (width 0.2))
  (fp_line (start -10.339 -2.155401) (end -10.332 -2.1591) (layer F.Mask) (width 0.2))
  (fp_line (start 4.5466 -2.6566) (end 4.488899 -2.4369) (layer F.Mask) (width 0.2))
  (fp_line (start -0.6359 -2.2606) (end -0.5805 -2.2294) (layer F.Mask) (width 0.2))
  (fp_line (start -10.3428 -2.1574) (end -10.339 -2.155401) (layer F.Mask) (width 0.2))
  (fp_line (start 4.6039 -2.618201) (end 4.603599 -2.619401) (layer F.Mask) (width 0.2))
  (fp_line (start -2.2872 -2.8809) (end -2.2887 -2.881001) (layer F.Mask) (width 0.2))
  (fp_line (start -10.3447 -2.1613) (end -10.3428 -2.1574) (layer F.Mask) (width 0.2))
  (fp_line (start -10.3447 -2.92) (end -10.3447 -2.1613) (layer F.Mask) (width 0.2))
  (fp_line (start -0.0499 -2.8692) (end 0.0789 -2.8564) (layer F.Mask) (width 0.2))
  (fp_line (start -10.3705 -3.2013) (end -10.3447 -2.92) (layer F.Mask) (width 0.2))
  (fp_line (start 4.603599 -2.619401) (end 4.6033 -2.620701) (layer F.Mask) (width 0.2))
  (fp_line (start -0.698 -2.6703) (end -0.6976 -2.671301) (layer F.Mask) (width 0.2))
  (fp_line (start -10.37 -3.2002) (end -10.3705 -3.2013) (layer F.Mask) (width 0.2))
  (fp_line (start -10.3301 -2.1613) (end -10.3301 -2.92) (layer F.Mask) (width 0.2))
  (fp_line (start -10.0057 -3.591) (end -10.0053 -3.5911) (layer F.Mask) (width 0.2))
  (fp_line (start -10.0062 -3.5907) (end -10.0057 -3.591) (layer F.Mask) (width 0.2))
  (fp_line (start -0.4194 -2.8496) (end -0.4226 -2.8492) (layer F.Mask) (width 0.2))
  (fp_line (start -0.3796 -2.87) (end -0.3808 -2.8698) (layer F.Mask) (width 0.2))
  (fp_line (start -10.2096 -3.4352) (end -10.0062 -3.5907) (layer F.Mask) (width 0.2))
  (fp_line (start 4.4022 -2.268901) (end 4.408 -2.282101) (layer F.Mask) (width 0.2))
  (fp_line (start 4.3927 -2.2558) (end 4.3961 -2.26) (layer F.Mask) (width 0.2))
  (fp_line (start -10.3072 -3.2026) (end -10.2096 -3.4352) (layer F.Mask) (width 0.2))
  (fp_line (start -10.3075 -3.201601) (end -10.3072 -3.2026) (layer F.Mask) (width 0.2))
  (fp_line (start -10.3076 -3.2007) (end -10.3075 -3.201601) (layer F.Mask) (width 0.2))
  (fp_line (start 0.3926 -2.3672) (end 0.2685 -2.2412) (layer F.Mask) (width 0.2))
  (fp_line (start 1.8791 -2.1565) (end 1.8831 -2.1613) (layer F.Mask) (width 0.2))
  (fp_line (start 3.0769 -2.2087) (end 3.0058 -2.299701) (layer F.Mask) (width 0.2))
  (fp_line (start 4.5711 -2.887101) (end 4.5677 -2.8875) (layer F.Mask) (width 0.2))
  (fp_line (start -2.4834 -2.8868) (end -2.7111 -2.87) (layer F.Mask) (width 0.2))
  (fp_line (start 0.3943 -2.699601) (end 0.3386 -2.7942) (layer F.Mask) (width 0.2))
  (fp_line (start -10.3301 -2.92) (end -10.3076 -3.2007) (layer F.Mask) (width 0.2))
  (fp_line (start -0.7087 -2.6389) (end -0.7087 -2.6389) (layer F.Mask) (width 0.2))
  (fp_line (start -10.0053 -3.5911) (end -9.6997 -3.640001) (layer F.Mask) (width 0.2))
  (fp_line (start -9.3889 -3.6027) (end -9.6997 -3.6546) (layer F.Mask) (width 0.2))
  (fp_line (start -0.7186 -2.5961) (end -0.7087 -2.6389) (layer F.Mask) (width 0.2))
  (fp_line (start -9.3877 -3.6021) (end -9.3889 -3.6027) (layer F.Mask) (width 0.2))
  (fp_line (start -9.3865 -3.6017) (end -9.3877 -3.6021) (layer F.Mask) (width 0.2))
  (fp_line (start -9.2871 -3.5298) (end -9.3865 -3.6017) (layer F.Mask) (width 0.2))
  (fp_line (start 0.3935 -2.369101) (end 0.392999 -2.3681) (layer F.Mask) (width 0.2))
  (fp_line (start -9.3962 -3.5907) (end -9.2871 -3.5298) (layer F.Mask) (width 0.2))
  (fp_line (start -1.9769 -2.7754) (end -1.9784 -2.777) (layer F.Mask) (width 0.2))
  (fp_line (start -9.3963 -3.5907) (end -9.3962 -3.5907) (layer F.Mask) (width 0.2))
  (fp_line (start 2.8203 -2.811201) (end 2.8194 -2.8118) (layer F.Mask) (width 0.2))
  (fp_line (start -2.4834 -2.155401) (end -0.9543 -2.155401) (layer F.Mask) (width 0.2))
  (fp_line (start -9.6997 -3.640001) (end -9.3963 -3.5907) (layer F.Mask) (width 0.2))
  (fp_line (start -9.6997 -3.6546) (end -9.8751 -3.6407) (layer F.Mask) (width 0.2))
  (fp_line (start -0.7167 -2.6049) (end -0.7186 -2.5961) (layer F.Mask) (width 0.2))
  (fp_line (start -10.341601 -3.234601) (end -10.4261 -3.3931) (layer F.Mask) (width 0.2))
  (fp_line (start -2.712301 -2.8698) (end -2.7134 -2.8697) (layer F.Mask) (width 0.2))
  (fp_line (start -0.7112 -2.6318) (end -0.7167 -2.6049) (layer F.Mask) (width 0.2))
  (fp_line (start 6.398999 -2.268001) (end 6.3114 -2.201601) (layer F.Mask) (width 0.2))
  (fp_line (start -0.5805 -2.2294) (end -0.57 -2.2232) (layer F.Mask) (width 0.2))
  (fp_line (start -10.253 -3.3909) (end -10.341601 -3.234601) (layer F.Mask) (width 0.2))
  (fp_line (start -10.1546 -3.5144) (end -10.253 -3.3909) (layer F.Mask) (width 0.2))
  (fp_line (start -0.6932 -2.7061) (end -0.7087 -2.6389) (layer F.Mask) (width 0.2))
  (fp_line (start 1.8714 -2.8722) (end 1.8714 -2.1613) (layer F.Mask) (width 0.2))
  (fp_line (start -10.0281 -3.5937) (end -10.1546 -3.5144) (layer F.Mask) (width 0.2))
  (fp_line (start -10.0269 -3.5943) (end -10.0281 -3.5937) (layer F.Mask) (width 0.2))
  (fp_line (start -10.0255 -3.595101) (end -10.0269 -3.5943) (layer F.Mask) (width 0.2))
  (fp_line (start -9.8751 -3.6407) (end -10.0255 -3.595101) (layer F.Mask) (width 0.2))
  (fp_line (start 4.2397 -2.1737) (end 4.2547 -2.1765) (layer F.Mask) (width 0.2))
  (fp_line (start -10.4261 -3.3931) (end -10.521701 -3.5131) (layer F.Mask) (width 0.2))
  (fp_line (start -0.6483 -2.2516) (end -0.6359 -2.2606) (layer F.Mask) (width 0.2))
  (fp_line (start -10.7997 -3.6407) (end -10.975101 -3.6546) (layer F.Mask) (width 0.2))
  (fp_line (start -10.6536 -3.5957) (end -10.7997 -3.6407) (layer F.Mask) (width 0.2))
  (fp_line (start -3.0541 -2.5834) (end -3.0541 -2.5834) (layer F.Mask) (width 0.2))
  (fp_line (start -10.651501 -3.594601) (end -10.6536 -3.5957) (layer F.Mask) (width 0.2))
  (fp_line (start -10.6496 -3.5938) (end -10.651501 -3.594601) (layer F.Mask) (width 0.2))
  (fp_line (start -0.6873 -2.223001) (end -0.6781 -2.2297) (layer F.Mask) (width 0.2))
  (fp_line (start -10.5232 -3.5144) (end -10.6496 -3.5938) (layer F.Mask) (width 0.2))
  (fp_line (start 4.4886 -2.4357) (end 4.488899 -2.4369) (layer F.Mask) (width 0.2))
  (fp_line (start -3.0305 -2.3401) (end -2.981 -2.2516) (layer F.Mask) (width 0.2))
  (fp_line (start 0.2677 -2.2229) (end 0.3882 -2.329601) (layer F.Mask) (width 0.2))
  (fp_line (start -10.5224 -3.513701) (end -10.5232 -3.5144) (layer F.Mask) (width 0.2))
  (fp_line (start -0.9543 -2.155401) (end -0.787 -2.1765) (layer F.Mask) (width 0.2))
  (fp_line (start -10.521701 -3.5131) (end -10.5224 -3.513701) (layer F.Mask) (width 0.2))
  (fp_line (start -2.7461 -2.8498) (end -2.7477 -2.8492) (layer F.Mask) (width 0.2))
  (fp_line (start -0.6971 -2.3672) (end -0.6976 -2.3681) (layer F.Mask) (width 0.2))
  (fp_line (start 6.3105 -2.201) (end 6.3114 -2.2017) (layer F.Mask) (width 0.2))
  (fp_line (start -2.9131 -2.2294) (end -2.9026 -2.2232) (layer F.Mask) (width 0.2))
  (fp_line (start 4.0874 -2.1672) (end 3.2152 -2.1672) (layer F.Mask) (width 0.2))
  (fp_line (start -10.975101 -3.6546) (end -10.975101 -3.6546) (layer F.Mask) (width 0.2))
  (fp_line (start -9.0952 -3.2032) (end -9.0946 -3.2003) (layer F.Mask) (width 0.2))
  (fp_line (start -9.095001 -3.2013) (end -9.0952 -3.2032) (layer F.Mask) (width 0.2))
  (fp_line (start -9.1937 -3.4357) (end -9.095001 -3.2013) (layer F.Mask) (width 0.2))
  (fp_line (start -9.1917 -3.4338) (end -9.1937 -3.4357) (layer F.Mask) (width 0.2))
  (fp_line (start -9.1943 -3.437101) (end -9.1917 -3.4338) (layer F.Mask) (width 0.2))
  (fp_line (start 1.8831 -2.1613) (end 1.8831 -2.519701) (layer F.Mask) (width 0.2))
  (fp_line (start 2.4209 -2.8723) (end 2.5303 -2.8692) (layer F.Mask) (width 0.2))
  (fp_line (start -9.1937 -3.4357) (end -9.1943 -3.437101) (layer F.Mask) (width 0.2))
  (fp_line (start -9.2785 -3.5235) (end -9.1937 -3.4357) (layer F.Mask) (width 0.2))
  (fp_line (start 1.8791 -2.8864) (end 1.8774 -2.888) (layer F.Mask) (width 0.2))
  (fp_line (start -9.0946 -3.2003) (end -9.095001 -3.2013) (layer F.Mask) (width 0.2))
  (fp_line (start -9.0546 -2.1613) (end -9.0546 -2.92) (layer F.Mask) (width 0.2))
  (fp_line (start 4.488899 -2.4369) (end 4.489699 -2.4381) (layer F.Mask) (width 0.2))
  (fp_line (start -9.0587 -2.1565) (end -9.0546 -2.1613) (layer F.Mask) (width 0.2))
  (fp_line (start -2.9686 -2.2608) (end -2.9131 -2.2294) (layer F.Mask) (width 0.2))
  (fp_line (start -9.0605 -2.155401) (end -9.0587 -2.1565) (layer F.Mask) (width 0.2))
  (fp_line (start -9.0673 -2.1591) (end -9.0605 -2.155401) (layer F.Mask) (width 0.2))
  (fp_line (start -9.0693 -2.1613) (end -9.0673 -2.1591) (layer F.Mask) (width 0.2))
  (fp_line (start -9.0693 -2.92) (end -9.0693 -2.1613) (layer F.Mask) (width 0.2))
  (fp_line (start -9.095001 -3.2013) (end -9.0693 -2.92) (layer F.Mask) (width 0.2))
  (fp_line (start -9.0546 -2.92) (end -9.0905 -3.2391) (layer F.Mask) (width 0.2))
  (fp_line (start -9.2786 -3.5235) (end -9.2785 -3.5235) (layer F.Mask) (width 0.2))
  (fp_line (start -0.3785 -2.8701) (end -0.3796 -2.87) (layer F.Mask) (width 0.2))
  (fp_line (start -9.1981 -3.4652) (end -9.2786 -3.5235) (layer F.Mask) (width 0.2))
  (fp_line (start -9.1972 -3.464101) (end -9.1981 -3.4652) (layer F.Mask) (width 0.2))
  (fp_line (start -9.1961 -3.4629) (end -9.1972 -3.464101) (layer F.Mask) (width 0.2))
  (fp_line (start -9.0911 -3.2413) (end -9.1961 -3.4629) (layer F.Mask) (width 0.2))
  (fp_line (start -9.0908 -3.2401) (end -9.0911 -3.2413) (layer F.Mask) (width 0.2))
  (fp_line (start -9.0905 -3.2391) (end -9.0908 -3.2401) (layer F.Mask) (width 0.2))
  (fp_line (start 4.568499 -3.3319) (end 4.5487 -3.322001) (layer F.Mask) (width 0.2))
  (fp_line (start 4.5911 -3.3193) (end 4.5896 -3.3207) (layer F.Mask) (width 0.2))
  (fp_line (start 4.5981 -3.3053) (end 4.5911 -3.3193) (layer F.Mask) (width 0.2))
  (fp_line (start 4.5892 -3.2874) (end 4.5981 -3.3053) (layer F.Mask) (width 0.2))
  (fp_line (start 4.568499 -3.2786) (end 4.5892 -3.2874) (layer F.Mask) (width 0.2))
  (fp_line (start 4.5497 -3.2865) (end 4.568499 -3.2786) (layer F.Mask) (width 0.2))
  (fp_line (start 4.5417 -3.3053) (end 4.5497 -3.2865) (layer F.Mask) (width 0.2))
  (fp_line (start 4.5487 -3.322001) (end 4.5417 -3.3053) (layer F.Mask) (width 0.2))
  (fp_line (start 4.5896 -3.3207) (end 4.588199 -3.322001) (layer F.Mask) (width 0.2))
  (fp_line (start -7.4053 -2.7979) (end -7.6098 -2.8697) (layer F.Mask) (width 0.2))
  (fp_line (start 2.9557 -2.5091) (end 2.9557 -2.4899) (layer F.Mask) (width 0.2))
  (fp_line (start -7.2533 -2.7009) (end -7.4053 -2.7979) (layer F.Mask) (width 0.2))
  (fp_line (start 4.5466 -2.6566) (end 4.5469 -2.6577) (layer F.Mask) (width 0.2))
  (fp_line (start -7.2533 -2.8812) (end -7.2533 -2.7009) (layer F.Mask) (width 0.2))
  (fp_line (start -7.251 -2.9226) (end -7.2533 -2.8812) (layer F.Mask) (width 0.2))
  (fp_line (start -7.245 -2.943601) (end -7.251 -2.9226) (layer F.Mask) (width 0.2))
  (fp_line (start 4.0953 -2.156) (end 4.0985 -2.1562) (layer F.Mask) (width 0.2))
  (fp_line (start 4.568499 -3.3319) (end 4.568499 -3.3319) (layer F.Mask) (width 0.2))
  (fp_line (start 2.9732 -2.3542) (end 3.0217 -2.2456) (layer F.Mask) (width 0.2))
  (fp_line (start 4.588199 -3.322001) (end 4.568499 -3.3319) (layer F.Mask) (width 0.2))
  (fp_line (start -7.6098 -2.8697) (end -7.8538 -2.8868) (layer F.Mask) (width 0.2))
  (fp_line (start -8.2738 -2.8132) (end -8.3963 -2.7061) (layer F.Mask) (width 0.2))
  (fp_line (start -8.2727 -2.8137) (end -8.2738 -2.8132) (layer F.Mask) (width 0.2))
  (fp_line (start -8.2716 -2.814301) (end -8.2727 -2.8137) (layer F.Mask) (width 0.2))
  (fp_line (start -8.0838 -2.8697) (end -8.2716 -2.814301) (layer F.Mask) (width 0.2))
  (fp_line (start -8.0826 -2.8698) (end -8.0838 -2.8697) (layer F.Mask) (width 0.2))
  (fp_line (start 0.4076 -2.631001) (end 0.4075 -2.6324) (layer F.Mask) (width 0.2))
  (fp_line (start -8.0814 -2.87) (end -8.0826 -2.8698) (layer F.Mask) (width 0.2))
  (fp_line (start -7.8538 -2.8868) (end -8.0814 -2.87) (layer F.Mask) (width 0.2))
  (fp_line (start -8.3963 -2.7061) (end -8.4116 -2.6393) (layer F.Mask) (width 0.2))
  (fp_line (start -8.1258 -2.8492) (end -8.1217 -2.8499) (layer F.Mask) (width 0.2))
  (fp_line (start -8.1226 -2.8496) (end -8.1258 -2.8492) (layer F.Mask) (width 0.2))
  (fp_line (start -8.2761 -2.7981) (end -8.1226 -2.8496) (layer F.Mask) (width 0.2))
  (fp_line (start -8.4002 -2.672201) (end -8.2761 -2.7981) (layer F.Mask) (width 0.2))
  (fp_line (start -8.4007 -2.671301) (end -8.4002 -2.672201) (layer F.Mask) (width 0.2))
  (fp_line (start -8.4011 -2.6703) (end -8.4007 -2.671301) (layer F.Mask) (width 0.2))
  (fp_line (start -8.4116 -2.6393) (end -8.4011 -2.6703) (layer F.Mask) (width 0.2))
  (fp_line (start -8.1217 -2.8499) (end -8.1226 -2.8496) (layer F.Mask) (width 0.2))
  (fp_line (start -7.321 -2.6959) (end -7.2866 -2.5918) (layer F.Mask) (width 0.2))
  (fp_line (start -7.4472 -2.806) (end -7.321 -2.6959) (layer F.Mask) (width 0.2))
  (fp_line (start -7.5941 -2.8529) (end -7.4472 -2.806) (layer F.Mask) (width 0.2))
  (fp_line (start -7.7388 -2.869401) (end -7.5941 -2.8529) (layer F.Mask) (width 0.2))
  (fp_line (start -7.8538 -2.8723) (end -7.7388 -2.869401) (layer F.Mask) (width 0.2))
  (fp_line (start -7.9748 -2.869401) (end -7.8538 -2.8723) (layer F.Mask) (width 0.2))
  (fp_line (start -8.1226 -2.8496) (end -7.9748 -2.869401) (layer F.Mask) (width 0.2))
  (fp_line (start -7.2866 -2.5918) (end -7.2831 -2.519701) (layer F.Mask) (width 0.2))
  (fp_line (start -7.5941 -2.1866) (end -7.7388 -2.17) (layer F.Mask) (width 0.2))
  (fp_line (start -7.4472 -2.233301) (end -7.5941 -2.1866) (layer F.Mask) (width 0.2))
  (fp_line (start -7.321 -2.343401) (end -7.4472 -2.233301) (layer F.Mask) (width 0.2))
  (fp_line (start -7.2866 -2.4442) (end -7.321 -2.343401) (layer F.Mask) (width 0.2))
  (fp_line (start -7.2866 -2.4446) (end -7.2866 -2.4442) (layer F.Mask) (width 0.2))
  (fp_line (start -7.2864 -2.4451) (end -7.2866 -2.4446) (layer F.Mask) (width 0.2))
  (fp_line (start -7.2831 -2.519701) (end -7.2864 -2.4451) (layer F.Mask) (width 0.2))
  (fp_line (start -7.7388 -2.17) (end -7.8538 -2.1671) (layer F.Mask) (width 0.2))
  (fp_line (start -8.4002 -2.3672) (end -8.4007 -2.3681) (layer F.Mask) (width 0.2))
  (fp_line (start -8.2761 -2.2412) (end -8.4002 -2.3672) (layer F.Mask) (width 0.2))
  (fp_line (start -8.1257 -2.1872) (end -8.2761 -2.2412) (layer F.Mask) (width 0.2))
  (fp_line (start -8.1237 -2.1868) (end -8.1257 -2.1872) (layer F.Mask) (width 0.2))
  (fp_line (start -8.1217 -2.1865) (end -8.1237 -2.1868) (layer F.Mask) (width 0.2))
  (fp_line (start -7.9745 -2.17) (end -8.1217 -2.1865) (layer F.Mask) (width 0.2))
  (fp_line (start -7.8538 -2.1671) (end -7.9745 -2.17) (layer F.Mask) (width 0.2))
  (fp_line (start -8.4007 -2.3681) (end -8.4011 -2.369101) (layer F.Mask) (width 0.2))
  (fp_line (start -7.6964 -2.1613) (end -7.5419 -2.185001) (layer F.Mask) (width 0.2))
  (fp_line (start -7.8538 -2.155401) (end -7.6964 -2.1613) (layer F.Mask) (width 0.2))
  (fp_line (start -8.0838 -2.169501) (end -7.8538 -2.155401) (layer F.Mask) (width 0.2))
  (fp_line (start -8.2724 -2.2229) (end -8.0838 -2.169501) (layer F.Mask) (width 0.2))
  (fp_line (start -8.3956 -2.3299) (end -8.2724 -2.2229) (layer F.Mask) (width 0.2))
  (fp_line (start -8.411801 -2.4004) (end -8.3956 -2.3299) (layer F.Mask) (width 0.2))
  (fp_line (start -8.4011 -2.369101) (end -8.411801 -2.4004) (layer F.Mask) (width 0.2))
  (fp_line (start -7.5419 -2.185001) (end -7.4107 -2.240601) (layer F.Mask) (width 0.2))
  (fp_line (start -6.871 -2.155401) (end -5.9003 -2.155401) (layer F.Mask) (width 0.2))
  (fp_line (start -7.1534 -2.3191) (end -6.871 -2.155401) (layer F.Mask) (width 0.2))
  (fp_line (start 4.5464 -2.655001) (end 4.5466 -2.6566) (layer F.Mask) (width 0.2))
  (fp_line (start -7.2335 -2.4543) (end -7.1534 -2.3191) (layer F.Mask) (width 0.2))
  (fp_line (start -2.286 -2.8809) (end -2.2872 -2.8809) (layer F.Mask) (width 0.2))
  (fp_line (start -2.9023 -2.8137) (end -2.9034 -2.8132) (layer F.Mask) (width 0.2))
  (fp_line (start -0.4226 -2.1872) (end -0.573 -2.2412) (layer F.Mask) (width 0.2))
  (fp_line (start -3.0687 -2.5196) (end -3.0538 -2.449601) (layer F.Mask) (width 0.2))
  (fp_line (start -7.3207 -2.323601) (end -7.2335 -2.4543) (layer F.Mask) (width 0.2))
  (fp_line (start -1.9458 -2.648201) (end -1.939 -2.6518) (layer F.Mask) (width 0.2))
  (fp_line (start 0.3275 -2.7861) (end 0.273 -2.814301) (layer F.Mask) (width 0.2))
  (fp_line (start -7.4092 -2.241501) (end -7.3207 -2.323601) (layer F.Mask) (width 0.2))
  (fp_line (start -7.4099 -2.2411) (end -7.4092 -2.241501) (layer F.Mask) (width 0.2))
  (fp_line (start -7.4107 -2.240601) (end -7.4099 -2.2411) (layer F.Mask) (width 0.2))
  (fp_line (start -5.9003 -2.155401) (end -5.8926 -2.156) (layer F.Mask) (width 0.2))
  (fp_line (start -0.4186 -2.8499) (end -0.4194 -2.8496) (layer F.Mask) (width 0.2))
  (fp_line (start -5.7552 -2.172501) (end -5.7332 -2.1765) (layer F.Mask) (width 0.2))
  (fp_line (start -0.6971 -2.672201) (end -0.573 -2.7981) (layer F.Mask) (width 0.2))
  (fp_line (start -5.7575 -2.1719) (end -5.7552 -2.172501) (layer F.Mask) (width 0.2))
  (fp_line (start 0.2121 -2.8256) (end 0.3342 -2.7538) (layer F.Mask) (width 0.2))
  (fp_line (start -5.7601 -2.171301) (end -5.7575 -2.1719) (layer F.Mask) (width 0.2))
  (fp_line (start 2.9522 -2.6013) (end 2.9515 -2.603601) (layer F.Mask) (width 0.2))
  (fp_line (start -5.882701 -2.1556) (end -5.7601 -2.171301) (layer F.Mask) (width 0.2))
  (fp_line (start -5.886 -2.155901) (end -5.882701 -2.1556) (layer F.Mask) (width 0.2))
  (fp_line (start -5.8894 -2.1562) (end -5.886 -2.155901) (layer F.Mask) (width 0.2))
  (fp_line (start 4.408 -2.282101) (end 4.4172 -2.292801) (layer F.Mask) (width 0.2))
  (fp_line (start -5.8926 -2.156) (end -5.8894 -2.1562) (layer F.Mask) (width 0.2))
  (fp_line (start 0.3882 -2.329601) (end 0.4344 -2.519701) (layer F.Mask) (width 0.2))
  (fp_line (start 4.0985 -2.1562) (end 4.1017 -2.155901) (layer F.Mask) (width 0.2))
  (fp_line (start -5.7332 -2.1765) (end -5.6088 -2.243) (layer F.Mask) (width 0.2))
  (fp_line (start -5.589 -2.2608) (end -5.5878 -2.263701) (layer F.Mask) (width 0.2))
  (fp_line (start -5.5879 -2.264) (end -5.589 -2.2608) (layer F.Mask) (width 0.2))
  (fp_line (start -5.5918 -2.26) (end -5.5879 -2.264) (layer F.Mask) (width 0.2))
  (fp_line (start 6.3996 -2.268901) (end 6.3993 -2.2685) (layer F.Mask) (width 0.2))
  (fp_line (start -5.5953 -2.2558) (end -5.5918 -2.26) (layer F.Mask) (width 0.2))
  (fp_line (start -0.1508 -2.1671) (end -0.271401 -2.17) (layer F.Mask) (width 0.2))
  (fp_line (start 2.6416 -2.8702) (end 2.4206 -2.8869) (layer F.Mask) (width 0.2))
  (fp_line (start -5.6014 -2.249201) (end -5.5953 -2.2558) (layer F.Mask) (width 0.2))
  (fp_line (start -5.6051 -2.2463) (end -5.6014 -2.249201) (layer F.Mask) (width 0.2))
  (fp_line (start 6.4164 -2.2733) (end 6.413 -2.2765) (layer F.Mask) (width 0.2))
  (fp_line (start -5.6088 -2.243) (end -5.6051 -2.2463) (layer F.Mask) (width 0.2))
  (fp_line (start 1.9143 -2.6863) (end 2.0311 -2.8041) (layer F.Mask) (width 0.2))
  (fp_line (start -5.5878 -2.263701) (end -5.585601 -2.2694) (layer F.Mask) (width 0.2))
  (fp_line (start -5.453 -2.5361) (end -5.4527 -2.5373) (layer F.Mask) (width 0.2))
  (fp_line (start -5.5372 -2.339101) (end -5.453 -2.5361) (layer F.Mask) (width 0.2))
  (fp_line (start 4.3996 -2.2625) (end 4.4022 -2.268901) (layer F.Mask) (width 0.2))
  (fp_line (start -5.5378 -2.3384) (end -5.5372 -2.339101) (layer F.Mask) (width 0.2))
  (fp_line (start -5.5384 -2.3375) (end -5.5378 -2.3384) (layer F.Mask) (width 0.2))
  (fp_line (start 4.3867 -2.249201) (end 4.3927 -2.2558) (layer F.Mask) (width 0.2))
  (fp_line (start -0.1508 -2.8868) (end -0.1508 -2.8868) (layer F.Mask) (width 0.2))
  (fp_line (start -2.9013 -2.814301) (end -2.9023 -2.8137) (layer F.Mask) (width 0.2))
  (fp_line (start -5.5699 -2.295401) (end -5.5384 -2.3375) (layer F.Mask) (width 0.2))
  (fp_line (start -1.9497 -2.6503) (end -1.9458 -2.648201) (layer F.Mask) (width 0.2))
  (fp_line (start -0.573 -2.7981) (end -0.4194 -2.8496) (layer F.Mask) (width 0.2))
  (fp_line (start -5.5798 -2.2836) (end -5.5699 -2.295401) (layer F.Mask) (width 0.2))
  (fp_line (start -0.7087 -2.6389) (end -0.698 -2.6703) (layer F.Mask) (width 0.2))
  (fp_line (start 2.1685 -2.8524) (end 2.1689 -2.8526) (layer F.Mask) (width 0.2))
  (fp_line (start -0.033 -2.17) (end -0.1508 -2.1671) (layer F.Mask) (width 0.2))
  (fp_line (start -5.585601 -2.2694) (end -5.5798 -2.2836) (layer F.Mask) (width 0.2))
  (fp_line (start -5.4527 -2.5373) (end -5.4524 -2.5383) (layer F.Mask) (width 0.2))
  (fp_line (start 2.1694 -2.8526) (end 2.3087 -2.869401) (layer F.Mask) (width 0.2))
  (fp_line (start -3.0499 -2.4311) (end -3.0499 -2.4311) (layer F.Mask) (width 0.2))
  (fp_line (start -4.4834 -2.321) (end -4.3064 -2.1991) (layer F.Mask) (width 0.2))
  (fp_line (start -3.026 -2.7061) (end -3.0459 -2.6189) (layer F.Mask) (width 0.2))
  (fp_line (start -4.5943 -2.5128) (end -4.4834 -2.321) (layer F.Mask) (width 0.2))
  (fp_line (start 4.3538 -2.2497) (end 4.1024 -2.1672) (layer F.Mask) (width 0.2))
  (fp_line (start -4.6367 -2.7755) (end -4.5943 -2.5128) (layer F.Mask) (width 0.2))
  (fp_line (start -4.6385 -2.8723) (end -4.6367 -2.7755) (layer F.Mask) (width 0.2))
  (fp_line (start -3.0541 -2.5834) (end -3.0687 -2.5196) (layer F.Mask) (width 0.2))
  (fp_line (start -0.4206 -2.1868) (end -0.4226 -2.1872) (layer F.Mask) (width 0.2))
  (fp_line (start -5.4072 -2.8723) (end -4.6385 -2.8723) (layer F.Mask) (width 0.2))
  (fp_line (start 6.314 -2.2024) (end 6.3105 -2.201) (layer F.Mask) (width 0.2))
  (fp_line (start 2.2083 -2.87) (end 2.2073 -2.869901) (layer F.Mask) (width 0.2))
  (fp_line (start -8.439 -2.5196) (end -8.424 -2.4539) (layer F.Mask) (width 0.2))
  (fp_line (start -5.413501 -2.7803) (end -5.4072 -2.8723) (layer F.Mask) (width 0.2))
  (fp_line (start -5.4524 -2.5383) (end -5.413501 -2.7803) (layer F.Mask) (width 0.2))
  (fp_line (start -2.7134 -2.8697) (end -2.9013 -2.814301) (layer F.Mask) (width 0.2))
  (fp_line (start -2.0667 -2.8212) (end -2.0688 -2.8226) (layer F.Mask) (width 0.2))
  (fp_line (start 0.4075 -2.6324) (end 0.4081 -2.6303) (layer F.Mask) (width 0.2))
  (fp_line (start 2.9515 -2.603601) (end 2.9586 -2.5315) (layer F.Mask) (width 0.2))
  (fp_line (start -4.3064 -2.1991) (end -4.0514 -2.1555) (layer F.Mask) (width 0.2))
  (fp_line (start -3.0572 -2.5196) (end -3.0541 -2.5834) (layer F.Mask) (width 0.2))
  (fp_line (start -3.1552 -2.1778) (end -3.1557 -2.1777) (layer F.Mask) (width 0.2))
  (fp_line (start -3.0776 -2.201) (end -3.1552 -2.1778) (layer F.Mask) (width 0.2))
  (fp_line (start -3.0107 -2.2297) (end -3.0776 -2.201) (layer F.Mask) (width 0.2))
  (fp_line (start -3.0199 -2.223001) (end -3.0107 -2.2297) (layer F.Mask) (width 0.2))
  (fp_line (start 2.8182 -2.8124) (end 2.6416 -2.8702) (layer F.Mask) (width 0.2))
  (fp_line (start 2.9772 -2.3976) (end 2.9772 -2.398201) (layer F.Mask) (width 0.2))
  (fp_line (start -0.8946 -2.1675) (end -0.899 -2.1672) (layer F.Mask) (width 0.2))
  (fp_line (start 2.9702 -2.4929) (end 2.9702 -2.5287) (layer F.Mask) (width 0.2))
  (fp_line (start -2.7483 -2.1869) (end -2.7504 -2.187501) (layer F.Mask) (width 0.2))
  (fp_line (start -3.1197 -2.1765) (end -3.0199 -2.223001) (layer F.Mask) (width 0.2))
  (fp_line (start -3.2869 -2.1555) (end -3.1197 -2.1765) (layer F.Mask) (width 0.2))
  (fp_line (start 2.2062 -2.8697) (end 2.028 -2.8149) (layer F.Mask) (width 0.2))
  (fp_line (start -2.0667 -2.8212) (end -1.9517 -2.654101) (layer F.Mask) (width 0.2))
  (fp_line (start 4.2348 -2.172501) (end 4.2372 -2.1733) (layer F.Mask) (width 0.2))
  (fp_line (start -0.8226 -2.1778) (end -0.823 -2.1776) (layer F.Mask) (width 0.2))
  (fp_line (start -4.0514 -2.1555) (end -3.2869 -2.1555) (layer F.Mask) (width 0.2))
  (fp_line (start -2.8931 -2.803101) (end -2.7477 -2.8492) (layer F.Mask) (width 0.2))
  (fp_line (start -3.1557 -2.1777) (end -3.2271 -2.1675) (layer F.Mask) (width 0.2))
  (fp_line (start -2.4834 -2.8722) (end -2.3831 -2.8722) (layer F.Mask) (width 0.2))
  (fp_line (start 0.4244 -2.6198) (end 0.3943 -2.699601) (layer F.Mask) (width 0.2))
  (fp_line (start 6.4155 -2.2682) (end 6.4171 -2.274801) (layer F.Mask) (width 0.2))
  (fp_line (start -4.4927 -2.3529) (end -4.4934 -2.354001) (layer F.Mask) (width 0.2))
  (fp_line (start -4.4918 -2.352001) (end -4.4927 -2.3529) (layer F.Mask) (width 0.2))
  (fp_line (start -0.7211 -2.5852) (end -0.7361 -2.519701) (layer F.Mask) (width 0.2))
  (fp_line (start -0.4186 -2.1865) (end -0.4206 -2.1868) (layer F.Mask) (width 0.2))
  (fp_line (start -4.3058 -2.214101) (end -4.4918 -2.352001) (layer F.Mask) (width 0.2))
  (fp_line (start -0.7245 -2.519701) (end -0.7211 -2.5852) (layer F.Mask) (width 0.2))
  (fp_line (start 2.4206 -2.8869) (end 2.2083 -2.87) (layer F.Mask) (width 0.2))
  (fp_line (start 4.5469 -2.6577) (end 4.5464 -2.655001) (layer F.Mask) (width 0.2))
  (fp_line (start 3.2153 -2.155401) (end 4.0874 -2.155401) (layer F.Mask) (width 0.2))
  (fp_line (start 6.413 -2.2765) (end 6.4099 -2.2798) (layer F.Mask) (width 0.2))
  (fp_line (start -4.0514 -2.1672) (end -4.3058 -2.214101) (layer F.Mask) (width 0.2))
  (fp_line (start -0.823 -2.1776) (end -0.8946 -2.1675) (layer F.Mask) (width 0.2))
  (fp_line (start 2.9557 -2.4899) (end 2.9732 -2.3542) (layer F.Mask) (width 0.2))
  (fp_line (start -3.0459 -2.6189) (end -3.0208 -2.6872) (layer F.Mask) (width 0.2))
  (fp_line (start -3.2869 -2.1672) (end -4.0514 -2.1672) (layer F.Mask) (width 0.2))
  (fp_line (start 6.4122 -2.2608) (end 6.4138 -2.2645) (layer F.Mask) (width 0.2))
  (fp_line (start -3.2315 -2.1672) (end -3.2869 -2.1672) (layer F.Mask) (width 0.2))
  (fp_line (start -3.0206 -2.3518) (end -3.0499 -2.4311) (layer F.Mask) (width 0.2))
  (fp_line (start 4.489699 -2.4381) (end 4.4886 -2.4357) (layer F.Mask) (width 0.2))
  (fp_line (start -0.5695 -2.8137) (end -0.5707 -2.8132) (layer F.Mask) (width 0.2))
  (fp_line (start -0.5685 -2.814301) (end -0.5695 -2.8137) (layer F.Mask) (width 0.2))
  (fp_line (start -0.3808 -2.1698) (end -0.1508 -2.155401) (layer F.Mask) (width 0.2))
  (fp_line (start 2.8194 -2.8118) (end 2.8182 -2.8124) (layer F.Mask) (width 0.2))
  (fp_line (start 6.3114 -2.201601) (end 6.314 -2.2024) (layer F.Mask) (width 0.2))
  (fp_line (start -3.2271 -2.1675) (end -3.2315 -2.1672) (layer F.Mask) (width 0.2))
  (fp_line (start 4.488899 -2.4369) (end 4.3538 -2.2497) (layer F.Mask) (width 0.2))
  (fp_line (start -4.4934 -2.354001) (end -4.5947 -2.559501) (layer F.Mask) (width 0.2))
  (fp_line (start -4.6216 -2.881401) (end -4.6232 -2.883) (layer F.Mask) (width 0.2))
  (fp_line (start 2.9273 -2.7109) (end 2.8203 -2.811201) (layer F.Mask) (width 0.2))
  (fp_line (start -0.6976 -2.3681) (end -0.698 -2.369101) (layer F.Mask) (width 0.2))
  (fp_line (start -4.6198 -2.879701) (end -4.6216 -2.881401) (layer F.Mask) (width 0.2))
  (fp_line (start -4.6192 -2.8812) (end -4.6198 -2.879701) (layer F.Mask) (width 0.2))
  (fp_line (start -4.6212 -2.8533) (end -4.6192 -2.8812) (layer F.Mask) (width 0.2))
  (fp_line (start -4.6209 -2.8555) (end -4.6212 -2.8533) (layer F.Mask) (width 0.2))
  (fp_line (start -4.6252 -2.800501) (end -4.6209 -2.8555) (layer F.Mask) (width 0.2))
  (fp_line (start -4.5947 -2.559501) (end -4.6252 -2.800501) (layer F.Mask) (width 0.2))
  (fp_line (start -4.6232 -2.883) (end -4.628 -2.8869) (layer F.Mask) (width 0.2))
  (fp_line (start -8.4275 -2.519701) (end -8.424 -2.5854) (layer F.Mask) (width 0.2))
  (fp_line (start 1.8858 -2.8782) (end 1.8811 -2.8847) (layer F.Mask) (width 0.2))
  (fp_line (start 2.7985 -2.8071) (end 2.8047 -2.8042) (layer F.Mask) (width 0.2))
  (fp_line (start -2.981 -2.2516) (end -2.9686 -2.2608) (layer F.Mask) (width 0.2))
  (fp_line (start -2.2234 -2.865601) (end -2.0667 -2.8212) (layer F.Mask) (width 0.2))
  (fp_line (start 0.3386 -2.7942) (end 0.3275 -2.7861) (layer F.Mask) (width 0.2))
  (fp_line (start -0.7087 -2.6389) (end -0.7112 -2.6318) (layer F.Mask) (width 0.2))
  (fp_line (start 2.9773 -2.3971) (end 2.9772 -2.3976) (layer F.Mask) (width 0.2))
  (fp_line (start 1.8831 -2.519701) (end 1.8864 -2.5923) (layer F.Mask) (width 0.2))
  (fp_line (start 6.4138 -2.2645) (end 6.4155 -2.2682) (layer F.Mask) (width 0.2))
  (fp_line (start 6.1007 -2.1555) (end 6.2678 -2.1765) (layer F.Mask) (width 0.2))
  (fp_line (start 2.3087 -2.869401) (end 2.4209 -2.8723) (layer F.Mask) (width 0.2))
  (fp_line (start 4.4172 -2.292801) (end 4.4933 -2.4139) (layer F.Mask) (width 0.2))
  (fp_line (start -5.4946 -2.4484) (end -5.4956 -2.4457) (layer F.Mask) (width 0.2))
  (fp_line (start -0.9543 -2.1672) (end -2.4834 -2.1672) (layer F.Mask) (width 0.2))
  (fp_line (start -5.4952 -2.4475) (end -5.4946 -2.4484) (layer F.Mask) (width 0.2))
  (fp_line (start -5.4379 -2.6731) (end -5.4952 -2.4475) (layer F.Mask) (width 0.2))
  (fp_line (start -2.1012 -2.8498) (end -2.1025 -2.8501) (layer F.Mask) (width 0.2))
  (fp_line (start 3.081 -2.2058) (end 3.079 -2.207201) (layer F.Mask) (width 0.2))
  (fp_line (start 2.6673 -2.8524) (end 2.8 -2.805701) (layer F.Mask) (width 0.2))
  (fp_line (start 4.2372 -2.1733) (end 4.2397 -2.1737) (layer F.Mask) (width 0.2))
  (fp_line (start -2.6015 -2.8693) (end -2.4834 -2.8722) (layer F.Mask) (width 0.2))
  (fp_line (start -5.4253 -2.8812) (end -5.4379 -2.6731) (layer F.Mask) (width 0.2))
  (fp_line (start -5.4243 -2.883) (end -5.4253 -2.8812) (layer F.Mask) (width 0.2))
  (fp_line (start -5.419501 -2.8869) (end -5.4243 -2.883) (layer F.Mask) (width 0.2))
  (fp_line (start 0.4164 -2.452101) (end 0.3935 -2.369101) (layer F.Mask) (width 0.2))
  (fp_line (start -4.628 -2.8869) (end -5.419501 -2.8869) (layer F.Mask) (width 0.2))
  (fp_line (start 4.3791 -2.2429) (end 4.3828 -2.2463) (layer F.Mask) (width 0.2))
  (fp_line (start -5.4956 -2.4457) (end -5.4952 -2.4475) (layer F.Mask) (width 0.2))
  (fp_line (start -7.087 -2.2556) (end -7.0878 -2.2565) (layer F.Mask) (width 0.2))
  (fp_line (start 3.2152 -2.1672) (end 3.081 -2.2058) (layer F.Mask) (width 0.2))
  (fp_line (start 4.4 -2.264) (end 4.3996 -2.2625) (layer F.Mask) (width 0.2))
  (fp_line (start 2.9286 -2.7088) (end 2.9279 -2.7099) (layer F.Mask) (width 0.2))
  (fp_line (start -2.0999 -2.849301) (end -2.1012 -2.8498) (layer F.Mask) (width 0.2))
  (fp_line (start -7.0861 -2.254701) (end -7.087 -2.2556) (layer F.Mask) (width 0.2))
  (fp_line (start -6.871 -2.1672) (end -7.0861 -2.254701) (layer F.Mask) (width 0.2))
  (fp_line (start -2.3831 -2.8722) (end -2.2234 -2.865601) (layer F.Mask) (width 0.2))
  (fp_line (start -5.9003 -2.1672) (end -6.871 -2.1672) (layer F.Mask) (width 0.2))
  (fp_line (start -5.8854 -2.1672) (end -5.9003 -2.1672) (layer F.Mask) (width 0.2))
  (fp_line (start -0.57 -2.2232) (end -0.3808 -2.1698) (layer F.Mask) (width 0.2))
  (fp_line (start -5.6292 -2.2542) (end -5.8854 -2.1672) (layer F.Mask) (width 0.2))
  (fp_line (start 0.273 -2.814301) (end 0.0765 -2.8726) (layer F.Mask) (width 0.2))
  (fp_line (start 4.8633 -2.2214) (end 5.1448 -2.1555) (layer F.Mask) (width 0.2))
  (fp_line (start -5.4952 -2.4475) (end -5.6292 -2.2542) (layer F.Mask) (width 0.2))
  (fp_line (start 0.4199 -2.519701) (end 0.4164 -2.452101) (layer F.Mask) (width 0.2))
  (fp_line (start -7.0878 -2.2565) (end -7.1912 -2.432801) (layer F.Mask) (width 0.2))
  (fp_line (start -7.2357 -2.937901) (end -7.236301 -2.9365) (layer F.Mask) (width 0.2))
  (fp_line (start 1.8811 -2.8847) (end 1.8791 -2.8864) (layer F.Mask) (width 0.2))
  (fp_line (start -2.9034 -2.8132) (end -3.026 -2.7061) (layer F.Mask) (width 0.2))
  (fp_line (start -2.4834 -2.8868) (end -2.4834 -2.8868) (layer F.Mask) (width 0.2))
  (fp_line (start -7.2385 -2.8774) (end -7.2357 -2.937901) (layer F.Mask) (width 0.2))
  (fp_line (start -7.2417 -2.8034) (end -7.2385 -2.8774) (layer F.Mask) (width 0.2))
  (fp_line (start -7.2324 -2.635701) (end -7.2417 -2.8034) (layer F.Mask) (width 0.2))
  (fp_line (start 1.8772 -2.155401) (end 1.8791 -2.1565) (layer F.Mask) (width 0.2))
  (fp_line (start -7.192601 -2.4366) (end -7.2324 -2.635701) (layer F.Mask) (width 0.2))
  (fp_line (start -7.192 -2.4348) (end -7.192601 -2.4366) (layer F.Mask) (width 0.2))
  (fp_line (start -0.4226 -2.8492) (end -0.4186 -2.8499) (layer F.Mask) (width 0.2))
  (fp_line (start -2.9026 -2.2232) (end -2.7134 -2.169601) (layer F.Mask) (width 0.2))
  (fp_line (start 1.8714 -2.1613) (end 1.8734 -2.1574) (layer F.Mask) (width 0.2))
  (fp_line (start -2.0629 -2.82) (end -2.0667 -2.8212) (layer F.Mask) (width 0.2))
  (fp_line (start 4.5771 -2.8632) (end 4.5711 -2.887101) (layer F.Mask) (width 0.2))
  (fp_line (start 3.0058 -2.299701) (end 2.9773 -2.3971) (layer F.Mask) (width 0.2))
  (fp_line (start -0.2717 -2.869401) (end -0.1508 -2.8723) (layer F.Mask) (width 0.2))
  (fp_line (start -2.7477 -2.8492) (end -2.6015 -2.8693) (layer F.Mask) (width 0.2))
  (fp_line (start -2.7503 -2.8489) (end -2.7461 -2.8498) (layer F.Mask) (width 0.2))
  (fp_line (start -7.1912 -2.432801) (end -7.192 -2.4348) (layer F.Mask) (width 0.2))
  (fp_line (start -7.236301 -2.9365) (end -7.239701 -2.9397) (layer F.Mask) (width 0.2))
  (fp_line (start 6.4066 -2.2771) (end 6.3996 -2.268901) (layer F.Mask) (width 0.2))
  (fp_line (start 6.4099 -2.2798) (end 6.4066 -2.2771) (layer F.Mask) (width 0.2))
  (fp_line (start 4.2547 -2.1765) (end 4.3791 -2.2429) (layer F.Mask) (width 0.2))
  (fp_line (start 6.399799 -2.249201) (end 6.405799 -2.2558) (layer F.Mask) (width 0.2))
  (fp_line (start 6.3114 -2.2017) (end 6.2322 -2.1778) (layer F.Mask) (width 0.2))
  (fp_line (start -8.4182 -2.4263) (end -8.4147 -2.4092) (layer F.Mask) (width 0.2))
  (fp_line (start 6.2317 -2.1777) (end 6.1602 -2.1675) (layer F.Mask) (width 0.2))
  (fp_line (start 5.1448 -2.1555) (end 6.1007 -2.1555) (layer F.Mask) (width 0.2))
  (fp_line (start 4.1052 -2.1556) (end 4.2348 -2.172501) (layer F.Mask) (width 0.2))
  (fp_line (start -0.573 -2.2412) (end -0.6971 -2.3672) (layer F.Mask) (width 0.2))
  (fp_line (start 4.4933 -2.4139) (end 4.5741 -2.593301) (layer F.Mask) (width 0.2))
  (fp_line (start -8.4219 -2.4446) (end -8.4182 -2.4263) (layer F.Mask) (width 0.2))
  (fp_line (start 6.3993 -2.2685) (end 6.398999 -2.268001) (layer F.Mask) (width 0.2))
  (fp_line (start -8.411801 -2.4005) (end -8.4219 -2.4446) (layer F.Mask) (width 0.2))
  (fp_line (start 6.4091 -2.26) (end 6.413 -2.264) (layer F.Mask) (width 0.2))
  (fp_line (start 4.698 -2.396501) (end 4.6973 -2.3976) (layer F.Mask) (width 0.2))
  (fp_line (start 6.413 -2.264) (end 6.4122 -2.2608) (layer F.Mask) (width 0.2))
  (fp_line (start 2.9508 -2.6108) (end 2.9522 -2.6013) (layer F.Mask) (width 0.2))
  (fp_line (start 0.4081 -2.6303) (end 0.4076 -2.631001) (layer F.Mask) (width 0.2))
  (fp_line (start -7.245 -2.9437) (end -7.245 -2.943601) (layer F.Mask) (width 0.2))
  (fp_line (start -0.6976 -2.671301) (end -0.6971 -2.672201) (layer F.Mask) (width 0.2))
  (fp_line (start 2.9279 -2.7099) (end 2.9273 -2.7109) (layer F.Mask) (width 0.2))
  (fp_line (start 3.0996 -2.1801) (end 3.2153 -2.155401) (layer F.Mask) (width 0.2))
  (fp_line (start -2.2887 -2.881001) (end -2.4834 -2.8868) (layer F.Mask) (width 0.2))
  (fp_line (start -2.7477 -2.8492) (end -2.7503 -2.8489) (layer F.Mask) (width 0.2))
  (fp_line (start 3.0217 -2.2456) (end 3.0996 -2.1801) (layer F.Mask) (width 0.2))
  (fp_line (start -0.5707 -2.8132) (end -0.6932 -2.7061) (layer F.Mask) (width 0.2))
  (fp_line (start 0.392999 -2.3681) (end 0.3926 -2.3672) (layer F.Mask) (width 0.2))
  (fp_line (start 4.5741 -2.593301) (end 4.6697 -2.421301) (layer F.Mask) (width 0.2))
  (fp_line (start -0.899 -2.1672) (end -0.9543 -2.1672) (layer F.Mask) (width 0.2))
  (fp_line (start -7.2415 -2.9437) (end -7.245 -2.9437) (layer F.Mask) (width 0.2))
  (fp_line (start 2.9223 -2.696) (end 2.9232 -2.6946) (layer F.Mask) (width 0.2))
  (fp_line (start -0.698 -2.369101) (end -0.7209 -2.452101) (layer F.Mask) (width 0.2))
  (fp_line (start -7.2429 -2.9431) (end -7.2415 -2.9437) (layer F.Mask) (width 0.2))
  (fp_line (start 2.1689 -2.8526) (end 2.1694 -2.8526) (layer F.Mask) (width 0.2))
  (fp_line (start 0.0789 -2.1698) (end 0.2677 -2.2229) (layer F.Mask) (width 0.2))
  (fp_line (start -7.239701 -2.9397) (end -7.2429 -2.9431) (layer F.Mask) (width 0.2))
  (fp_line (start 2.9232 -2.6946) (end 2.9226 -2.695201) (layer F.Mask) (width 0.2))
  (fp_line (start -8.4147 -2.4092) (end -8.411801 -2.4005) (layer F.Mask) (width 0.2))
  (fp_line (start 6.3922 -2.2429) (end 6.3958 -2.2463) (layer F.Mask) (width 0.2))
  (fp_line (start 3.079 -2.207201) (end 3.0769 -2.2087) (layer F.Mask) (width 0.2))
  (fp_line (start 0.1148 -2.1866) (end -0.033 -2.17) (layer F.Mask) (width 0.2))
  (fp_line (start 1.8774 -2.888) (end 1.8772 -2.8868) (layer F.Mask) (width 0.2))
  (fp_line (start 6.2678 -2.1765) (end 6.3922 -2.2429) (layer F.Mask) (width 0.2))
  (fp_line (start -1.9371 -2.654101) (end -1.9753 -2.7739) (layer F.Mask) (width 0.2))
  (fp_line (start -2.6013 -2.1701) (end -2.7461 -2.1866) (layer F.Mask) (width 0.2))
  (fp_line (start -8.4116 -2.6394) (end -8.4116 -2.6394) (layer F.Mask) (width 0.2))
  (fp_line (start -3.0208 -2.6872) (end -2.8931 -2.803101) (layer F.Mask) (width 0.2))
  (fp_line (start -8.4217 -2.5955) (end -8.4116 -2.6394) (layer F.Mask) (width 0.2))
  (fp_line (start -1.9784 -2.777) (end -2.0999 -2.849301) (layer F.Mask) (width 0.2))
  (fp_line (start -2.4834 -2.1672) (end -2.6013 -2.1701) (layer F.Mask) (width 0.2))
  (fp_line (start -8.4172 -2.618201) (end -8.4217 -2.5955) (layer F.Mask) (width 0.2))
  (fp_line (start 6.1006 -2.1672) (end 5.144699 -2.1672) (layer F.Mask) (width 0.2))
  (fp_line (start 4.1017 -2.155901) (end 4.1052 -2.1556) (layer F.Mask) (width 0.2))
  (fp_line (start 2.9586 -2.5315) (end 2.9557 -2.5091) (layer F.Mask) (width 0.2))
  (fp_line (start 4.3828 -2.2463) (end 4.3867 -2.249201) (layer F.Mask) (width 0.2))
  (fp_line (start 5.144699 -2.1672) (end 4.878 -2.230701) (layer F.Mask) (width 0.2))
  (fp_line (start 6.155799 -2.1672) (end 6.1006 -2.1672) (layer F.Mask) (width 0.2))
  (fp_line (start 4.878 -2.230701) (end 4.6988 -2.3955) (layer F.Mask) (width 0.2))
  (fp_line (start -8.4148 -2.6299) (end -8.4172 -2.618201) (layer F.Mask) (width 0.2))
  (fp_line (start 2.028 -2.8149) (end 1.9164 -2.7556) (layer F.Mask) (width 0.2))
  (fp_line (start -8.4116 -2.6394) (end -8.4148 -2.6299) (layer F.Mask) (width 0.2))
  (fp_line (start -8.411801 -2.4005) (end -8.411801 -2.4005) (layer F.Mask) (width 0.2))
  (fp_line (start 0.3368 -2.7512) (end 0.4076 -2.631001) (layer F.Mask) (width 0.2))
  (fp_line (start -2.1025 -2.8501) (end -2.286 -2.8809) (layer F.Mask) (width 0.2))
  (fp_line (start 1.8772 -2.8868) (end 1.8769 -2.8864) (layer F.Mask) (width 0.2))
  (fp_line (start 0.4896 -2.870801) (end 0.4878 -2.8705) (layer F.Mask) (width 0.2))
  (fp_line (start 0.4912 -2.8712) (end 0.4896 -2.870801) (layer F.Mask) (width 0.2))
  (fp_line (start 0.6377 -2.8868) (end 0.4912 -2.8712) (layer F.Mask) (width 0.2))
  (fp_line (start 1.8474 -2.8868) (end 0.6377 -2.8868) (layer F.Mask) (width 0.2))
  (fp_line (start 4.0874 -2.155401) (end 4.0953 -2.156) (layer F.Mask) (width 0.2))
  (fp_line (start -2.8931 -2.236301) (end -3.0206 -2.3518) (layer F.Mask) (width 0.2))
  (fp_line (start -0.1508 -2.8868) (end -0.3785 -2.8701) (layer F.Mask) (width 0.2))
  (fp_line (start 1.8474 -2.8864) (end 1.8474 -2.8868) (layer F.Mask) (width 0.2))
  (fp_line (start 2.8047 -2.8042) (end 2.8 -2.805701) (layer F.Mask) (width 0.2))
  (fp_line (start 1.8622 -2.8842) (end 1.8474 -2.8864) (layer F.Mask) (width 0.2))
  (fp_line (start -0.745 -2.201) (end -0.8226 -2.1778) (layer F.Mask) (width 0.2))
  (fp_line (start -0.1508 -2.155401) (end 0.0789 -2.1698) (layer F.Mask) (width 0.2))
  (fp_line (start -2.7504 -2.187501) (end -2.8931 -2.236301) (layer F.Mask) (width 0.2))
  (fp_line (start 1.8769 -2.8864) (end 1.8622 -2.8842) (layer F.Mask) (width 0.2))
  (fp_line (start 0.4878 -2.8705) (end 0.377 -2.8225) (layer F.Mask) (width 0.2))
  (fp_line (start -2.7111 -2.87) (end -2.712301 -2.8698) (layer F.Mask) (width 0.2))
  (fp_line (start -0.1508 -2.8723) (end -0.0499 -2.8692) (layer F.Mask) (width 0.2))
  (fp_line (start 0.4344 -2.519701) (end 0.4244 -2.6198) (layer F.Mask) (width 0.2))
  (fp_line (start -0.4194 -2.8496) (end -0.2717 -2.869401) (layer F.Mask) (width 0.2))
  (fp_line (start 0.5474 -2.865601) (end 0.6377 -2.8722) (layer F.Mask) (width 0.2))
  (fp_line (start 0.5495 -2.866001) (end 0.5474 -2.865601) (layer F.Mask) (width 0.2))
  (fp_line (start 2.9226 -2.695201) (end 2.9515 -2.603601) (layer F.Mask) (width 0.2))
  (fp_line (start -2.7461 -2.1866) (end -2.7483 -2.1869) (layer F.Mask) (width 0.2))
  (fp_line (start -0.787 -2.1765) (end -0.6873 -2.223001) (layer F.Mask) (width 0.2))
  (fp_line (start 0.542 -2.8651) (end 0.5495 -2.866001) (layer F.Mask) (width 0.2))
  (fp_line (start 0.5474 -2.865601) (end 0.542 -2.8651) (layer F.Mask) (width 0.2))
  (fp_line (start 2.9515 -2.603601) (end 2.9508 -2.6108) (layer F.Mask) (width 0.2))
  (fp_line (start 0.1181 -2.1872) (end 0.1163 -2.1869) (layer F.Mask) (width 0.2))
  (fp_line (start 2.2073 -2.869901) (end 2.2062 -2.8697) (layer F.Mask) (width 0.2))
  (fp_line (start 6.1602 -2.1675) (end 6.155799 -2.1672) (layer F.Mask) (width 0.2))
  (fp_line (start -0.7209 -2.452101) (end -0.7245 -2.519701) (layer F.Mask) (width 0.2))
  (fp_line (start 0.4441 -2.8418) (end 0.5474 -2.865601) (layer F.Mask) (width 0.2))
  (fp_line (start 0.0789 -2.8564) (end 0.2121 -2.8256) (layer F.Mask) (width 0.2))
  (fp_line (start 4.5677 -2.8875) (end 4.562499 -2.8632) (layer F.Mask) (width 0.2))
  (fp_line (start -0.7361 -2.519701) (end -0.6977 -2.3401) (layer F.Mask) (width 0.2))
  (fp_line (start 0.3584 -2.8088) (end 0.4441 -2.8418) (layer F.Mask) (width 0.2))
  (fp_line (start -1.9517 -2.654101) (end -1.9497 -2.6503) (layer F.Mask) (width 0.2))
  (fp_line (start 4.6973 -2.3976) (end 4.6039 -2.618201) (layer F.Mask) (width 0.2))
  (fp_line (start 4.3961 -2.26) (end 4.4 -2.264) (layer F.Mask) (width 0.2))
  (fp_circle (center 10.51 -2.760442) (end 12.56 -2.69) (layer F.Mask) (width 0.6))
  (fp_line (start 9.4437 -3.4941) (end 9.3792 -3.6456) (layer F.Mask) (width 0.2))
  (fp_line (start 9.3792 -3.6456) (end 9.2265 -3.714499) (layer F.Mask) (width 0.2))
  (fp_line (start 10.074299 -3.5906) (end 9.818 -3.446699) (layer F.Mask) (width 0.2))
  (fp_line (start 9.818 -3.446699) (end 9.5771 -3.1258) (layer F.Mask) (width 0.2))
  (fp_line (start 9.0678 -1.8586) (end 9.071699 -1.8546) (layer F.Mask) (width 0.2))
  (fp_line (start 9.071699 -1.8546) (end 9.0755 -1.8507) (layer F.Mask) (width 0.2))
  (fp_line (start 9.2266 -3.714499) (end 9.071699 -3.6484) (layer F.Mask) (width 0.2))
  (fp_line (start 9.071699 -3.6484) (end 9.069999 -3.646199) (layer F.Mask) (width 0.2))
  (fp_line (start 11.7326 -3.128599) (end 11.7862 -3.091599) (layer F.Mask) (width 0.2))
  (fp_line (start 11.7862 -3.091599) (end 11.9177 -3.0465) (layer F.Mask) (width 0.2))
  (fp_line (start 9.0755 -1.8507) (end 9.2265 -1.791699) (layer F.Mask) (width 0.2))
  (fp_line (start 9.2265 -1.791699) (end 9.3781 -1.8546) (layer F.Mask) (width 0.2))
  (fp_line (start 11.2204 -2.691399) (end 11.394499 -2.671699) (layer F.Mask) (width 0.2))
  (fp_line (start 11.394499 -2.671699) (end 11.3967 -2.6711) (layer F.Mask) (width 0.2))
  (fp_line (start 10.0085 -2.487399) (end 9.9699 -2.5915) (layer F.Mask) (width 0.2))
  (fp_line (start 9.9699 -2.5915) (end 10.051 -2.5596) (layer F.Mask) (width 0.2))
  (fp_line (start 10.051 -2.5596) (end 10.1529 -2.583299) (layer F.Mask) (width 0.2))
  (fp_line (start 10.1529 -2.583299) (end 10.3211 -2.643999) (layer F.Mask) (width 0.2))
  (fp_line (start 10.9288 -2.699899) (end 11.0561 -2.697099) (layer F.Mask) (width 0.2))
  (fp_line (start 11.0561 -2.697099) (end 11.0584 -2.697099) (layer F.Mask) (width 0.2))
  (fp_line (start 10.9291 -2.226899) (end 10.676 -2.2323) (layer F.Mask) (width 0.2))
  (fp_line (start 10.676 -2.2323) (end 10.3988 -2.2687) (layer F.Mask) (width 0.2))
  (fp_line (start 10.3988 -2.2687) (end 10.1546 -2.354199) (layer F.Mask) (width 0.2))
  (fp_line (start 10.1546 -2.354199) (end 10.0085 -2.487399) (layer F.Mask) (width 0.2))
  (fp_line (start 11.0584 -2.697099) (end 11.060599 -2.697099) (layer F.Mask) (width 0.2))
  (fp_line (start 11.060599 -2.697099) (end 11.2204 -2.691399) (layer F.Mask) (width 0.2))
  (fp_line (start 10.6757 -3.2649) (end 10.9288 -3.273099) (layer F.Mask) (width 0.2))
  (fp_line (start 10.9288 -3.273099) (end 11.1193 -3.267999) (layer F.Mask) (width 0.2))
  (fp_line (start 9.5771 -3.1258) (end 9.5165 -2.749799) (layer F.Mask) (width 0.2))
  (fp_line (start 9.5165 -2.749799) (end 9.5782 -2.3725) (layer F.Mask) (width 0.2))
  (fp_line (start 9.5782 -2.3725) (end 9.8186 -2.053299) (layer F.Mask) (width 0.2))
  (fp_line (start 9.8186 -2.053299) (end 10.0749 -1.9094) (layer F.Mask) (width 0.2))
  (fp_line (start 10.0749 -1.9094) (end 10.3665 -1.8295) (layer F.Mask) (width 0.2))
  (fp_line (start 10.3665 -1.8295) (end 10.6641 -1.7948) (layer F.Mask) (width 0.2))
  (fp_line (start 10.6641 -1.7948) (end 10.9288 -1.789199) (layer F.Mask) (width 0.2))
  (fp_line (start 10.9288 -1.789199) (end 11.2048 -1.795399) (layer F.Mask) (width 0.2))
  (fp_line (start 12.141 -2.749799) (end 11.9629 -2.9395) (layer F.Mask) (width 0.2))
  (fp_line (start 11.9629 -2.9395) (end 11.7286 -3.0465) (layer F.Mask) (width 0.2))
  (fp_line (start 11.7286 -3.0465) (end 11.4865 -3.100599) (layer F.Mask) (width 0.2))
  (fp_line (start 11.4865 -3.100599) (end 11.2026 -3.1292) (layer F.Mask) (width 0.2))
  (fp_line (start 11.2048 -1.795399) (end 11.4865 -1.8261) (layer F.Mask) (width 0.2))
  (fp_line (start 11.4865 -1.8261) (end 11.7281 -1.88) (layer F.Mask) (width 0.2))
  (fp_line (start 11.1227 -3.2674) (end 11.3228 -3.2505) (layer F.Mask) (width 0.2))
  (fp_line (start 11.3228 -3.2505) (end 11.5187 -3.211299) (layer F.Mask) (width 0.2))
  (fp_line (start 10.259 -3.079199) (end 10.0473 -3.0174) (layer F.Mask) (width 0.2))
  (fp_line (start 10.0473 -3.0174) (end 10.0038 -3.0007) (layer F.Mask) (width 0.2))
  (fp_line (start 10.3211 -2.643999) (end 10.52 -2.6799) (layer F.Mask) (width 0.2))
  (fp_line (start 10.52 -2.6799) (end 10.726699 -2.697099) (layer F.Mask) (width 0.2))
  (fp_line (start 10.0038 -3.0007) (end 10.0076 -3.0117) (layer F.Mask) (width 0.2))
  (fp_line (start 10.0076 -3.0117) (end 10.1543 -3.142999) (layer F.Mask) (width 0.2))
  (fp_line (start 10.1543 -3.142999) (end 10.3984 -3.2285) (layer F.Mask) (width 0.2))
  (fp_line (start 10.3984 -3.2285) (end 10.6757 -3.2649) (layer F.Mask) (width 0.2))
  (fp_line (start 10.7198 -3.132) (end 10.4866 -3.1165) (layer F.Mask) (width 0.2))
  (fp_line (start 10.4866 -3.1165) (end 10.259 -3.079199) (layer F.Mask) (width 0.2))
  (fp_line (start 11.2026 -3.1292) (end 10.9288 -3.1354) (layer F.Mask) (width 0.2))
  (fp_line (start 10.9288 -3.1354) (end 10.7198 -3.132) (layer F.Mask) (width 0.2))
  (fp_line (start 9.2265 -3.714499) (end 9.2266 -3.714499) (layer F.Mask) (width 0.2))
  (fp_line (start 9.3792 -3.6456) (end 9.382 -3.644499) (layer F.Mask) (width 0.2))
  (fp_line (start 10.726699 -2.697099) (end 10.9291 -2.699899) (layer F.Mask) (width 0.2))
  (fp_line (start 10.9291 -2.699899) (end 10.9288 -2.699899) (layer F.Mask) (width 0.2))
  (fp_line (start 11.171 -3.7052) (end 10.9291 -3.7111) (layer F.Mask) (width 0.2))
  (fp_line (start 10.9291 -3.7111) (end 10.9288 -3.7114) (layer F.Mask) (width 0.2))
  (fp_line (start 11.5613 -2.285299) (end 11.3987 -2.252599) (layer F.Mask) (width 0.2))
  (fp_line (start 11.3987 -2.252599) (end 11.2201 -2.2351) (layer F.Mask) (width 0.2))
  (fp_line (start 9.382 -3.644499) (end 9.3781 -3.6484) (layer F.Mask) (width 0.2))
  (fp_line (start 9.3781 -3.6484) (end 9.3792 -3.6456) (layer F.Mask) (width 0.2))
  (fp_line (start 11.1193 -3.267999) (end 11.121 -3.2674) (layer F.Mask) (width 0.2))
  (fp_line (start 11.121 -3.2674) (end 11.1227 -3.2674) (layer F.Mask) (width 0.2))
  (fp_line (start 9.069999 -3.646199) (end 9.0678 -3.644499) (layer F.Mask) (width 0.2))
  (fp_line (start 9.0678 -3.644499) (end 9.0088 -3.4941) (layer F.Mask) (width 0.2))
  (fp_line (start 9.0088 -3.4941) (end 9.0088 -2.009599) (layer F.Mask) (width 0.2))
  (fp_line (start 9.0088 -2.009599) (end 9.0678 -1.8586) (layer F.Mask) (width 0.2))
  (fp_line (start 9.3781 -1.8546) (end 9.4437 -2.009599) (layer F.Mask) (width 0.2))
  (fp_line (start 9.4437 -2.009599) (end 9.4437 -3.4941) (layer F.Mask) (width 0.2))
  (fp_line (start 11.984 -3.4853) (end 11.9262 -3.52) (layer F.Mask) (width 0.2))
  (fp_line (start 11.9262 -3.52) (end 11.6818 -3.6202) (layer F.Mask) (width 0.2))
  (fp_line (start 12.1356 -3.263499) (end 12.0667 -3.4246) (layer F.Mask) (width 0.2))
  (fp_line (start 12.0667 -3.4246) (end 11.984 -3.4853) (layer F.Mask) (width 0.2))
  (fp_line (start 11.5613 -2.638699) (end 11.5635 -2.638099) (layer F.Mask) (width 0.2))
  (fp_line (start 11.5635 -2.638099) (end 11.5658 -2.6375) (layer F.Mask) (width 0.2))
  (fp_line (start 11.5658 -2.6375) (end 11.6925 -2.590099) (layer F.Mask) (width 0.2))
  (fp_line (start 11.6925 -2.590099) (end 11.7574 -2.5376) (layer F.Mask) (width 0.2))
  (fp_line (start 11.7724 -2.4631) (end 11.7681 -2.407499) (layer F.Mask) (width 0.2))
  (fp_line (start 11.7681 -2.407499) (end 11.7569 -2.3849) (layer F.Mask) (width 0.2))
  (fp_line (start 11.5187 -3.211299) (end 11.5204 -3.2107) (layer F.Mask) (width 0.2))
  (fp_line (start 11.5204 -3.2107) (end 11.522 -3.210199) (layer F.Mask) (width 0.2))
  (fp_line (start 11.9177 -3.0465) (end 12.0696 -3.109399) (layer F.Mask) (width 0.2))
  (fp_line (start 12.0696 -3.109399) (end 12.1356 -3.263499) (layer F.Mask) (width 0.2))
  (fp_line (start 11.522 -3.210199) (end 11.6846 -3.154) (layer F.Mask) (width 0.2))
  (fp_line (start 11.6846 -3.154) (end 11.6869 -3.1529) (layer F.Mask) (width 0.2))
  (fp_line (start 11.7569 -2.3849) (end 11.6942 -2.334099) (layer F.Mask) (width 0.2))
  (fp_line (start 11.6942 -2.334099) (end 11.5613 -2.285299) (layer F.Mask) (width 0.2))
  (fp_line (start 11.6818 -3.6202) (end 11.4289 -3.6769) (layer F.Mask) (width 0.2))
  (fp_line (start 11.4289 -3.6769) (end 11.171 -3.7052) (layer F.Mask) (width 0.2))
  (fp_line (start 11.6869 -3.1529) (end 11.6886 -3.1523) (layer F.Mask) (width 0.2))
  (fp_line (start 11.6886 -3.1523) (end 11.7326 -3.128599) (layer F.Mask) (width 0.2))
  (fp_line (start 11.2201 -2.2351) (end 11.0564 -2.226899) (layer F.Mask) (width 0.2))
  (fp_line (start 11.0564 -2.226899) (end 10.9291 -2.226899) (layer F.Mask) (width 0.2))
  (fp_line (start 12.141 -2.1767) (end 12.2098 -2.463399) (layer F.Mask) (width 0.2))
  (fp_line (start 12.2098 -2.463399) (end 12.141 -2.749799) (layer F.Mask) (width 0.2))
  (fp_line (start 10.6641 -3.702299) (end 10.3665 -3.667599) (layer F.Mask) (width 0.2))
  (fp_line (start 10.3665 -3.667599) (end 10.074299 -3.5906) (layer F.Mask) (width 0.2))
  (fp_line (start 9.3792 -3.6456) (end 9.3792 -3.6456) (layer F.Mask) (width 0.2))
  (fp_line (start 10.9288 -3.7114) (end 10.6641 -3.702299) (layer F.Mask) (width 0.2))
  (fp_line (start 11.7281 -1.88) (end 11.9629 -1.987599) (layer F.Mask) (width 0.2))
  (fp_line (start 11.9629 -1.987599) (end 12.141 -2.1767) (layer F.Mask) (width 0.2))
  (fp_line (start 11.7574 -2.5376) (end 11.7684 -2.5145) (layer F.Mask) (width 0.2))
  (fp_line (start 11.7684 -2.5145) (end 11.7724 -2.4631) (layer F.Mask) (width 0.2))
  (fp_line (start 11.3967 -2.6711) (end 11.399 -2.6711) (layer F.Mask) (width 0.2))
  (fp_line (start 11.399 -2.6711) (end 11.5613 -2.638699) (layer F.Mask) (width 0.2))
  (fp_line (start 9.17 -3.9) (end 11.95 -3.88) (layer F.Mask) (width 0.4))
  (fp_line (start 9.17 -4.24) (end 11.95 -4.22) (layer F.Mask) (width 0.4))
  (fp_line (start 9.43 -4.49) (end 11.76 -4.38) (layer F.Mask) (width 0.4))
  (fp_line (start 9.13 -1.59) (end 11.91 -1.57) (layer F.Mask) (width 0.4))
  (fp_line (start 9.2 -1.29) (end 11.98 -1.27) (layer F.Mask) (width 0.4))
  (fp_line (start 9.61 -1.06) (end 11.7 -1.03) (layer F.Mask) (width 0.4))
  (fp_line (start 9.59 -2.11) (end 9.62 -1.49) (layer F.Mask) (width 0.4))
  (fp_line (start 9.77 -1.82) (end 11.2 -1.45) (layer F.Mask) (width 0.4))
  (fp_line (start 10.85 -1.52) (end 12.31 -1.82) (layer F.Mask) (width 0.4))
  (fp_line (start 11.64 -3.8) (end 12.29 -3.55) (layer F.Mask) (width 0.4))
  (fp_line (start 12.2 -3.07) (end 12.33 -2.76) (layer F.Mask) (width 0.4))
  (fp_line (start 9.57 -3.4) (end 9.99 -3.88) (layer F.Mask) (width 0.4))
  (fp_line (start 9.6 -3.68) (end 9.87 -4.03) (layer F.Mask) (width 0.4))
  (fp_line (start 8.79 -3.57) (end 8.83 -2.03) (layer F.Mask) (width 0.4))
  (fp_line (start 10.34 -2.48) (end 11.57 -2.46) (layer F.Mask) (width 0.4))
)
