G04 #@! TF.GenerationSoftware,KiCad,Pcbnew,5.1.10*
G04 #@! TF.CreationDate,2021-05-26T10:10:37+02:00*
G04 #@! TF.ProjectId,marconi16-plate,6d617263-6f6e-4693-9136-2d706c617465,rev?*
G04 #@! TF.SameCoordinates,Original*
G04 #@! TF.FileFunction,Copper,L2,Bot*
G04 #@! TF.FilePolarity,Positive*
%FSLAX46Y46*%
G04 Gerber Fmt 4.6, Leading zero omitted, Abs format (unit mm)*
G04 Created by KiCad (PCBNEW 5.1.10) date 2021-05-26 10:10:37*
%MOMM*%
%LPD*%
G01*
G04 APERTURE LIST*
G04 #@! TA.AperFunction,SMDPad,CuDef*
%ADD10R,1.524000X1.524000*%
G04 #@! TD*
G04 #@! TA.AperFunction,ComponentPad*
%ADD11C,4.400000*%
G04 #@! TD*
G04 #@! TA.AperFunction,Conductor*
%ADD12C,0.254000*%
G04 #@! TD*
G04 #@! TA.AperFunction,Conductor*
%ADD13C,0.100000*%
G04 #@! TD*
G04 APERTURE END LIST*
D10*
X213350000Y-128150000D03*
X64600000Y-127850000D03*
D11*
X211931250Y-134143750D03*
X211931250Y-72231250D03*
X65881250Y-134143750D03*
X65881250Y-72231250D03*
D12*
X210588374Y-69718906D02*
X210124043Y-70029162D01*
X209729162Y-70424043D01*
X209418906Y-70888374D01*
X209205198Y-71404311D01*
X209096250Y-71952027D01*
X209096250Y-72510473D01*
X209205198Y-73058189D01*
X209418906Y-73574126D01*
X209729162Y-74038457D01*
X210124043Y-74433338D01*
X210588374Y-74743594D01*
X211104311Y-74957302D01*
X211652027Y-75066250D01*
X212210473Y-75066250D01*
X212758189Y-74957302D01*
X213274126Y-74743594D01*
X213738457Y-74433338D01*
X214133338Y-74038457D01*
X214443594Y-73574126D01*
X214446250Y-73567714D01*
X214446251Y-126846643D01*
X214356180Y-126798498D01*
X214236482Y-126762188D01*
X214112000Y-126749928D01*
X213635750Y-126753000D01*
X213477000Y-126911750D01*
X213477000Y-128023000D01*
X213497000Y-128023000D01*
X213497000Y-128277000D01*
X213477000Y-128277000D01*
X213477000Y-129388250D01*
X213635750Y-129547000D01*
X214112000Y-129550072D01*
X214236482Y-129537812D01*
X214356180Y-129501502D01*
X214446251Y-129453357D01*
X214446251Y-132807288D01*
X214443594Y-132800874D01*
X214133338Y-132336543D01*
X213738457Y-131941662D01*
X213274126Y-131631406D01*
X212758189Y-131417698D01*
X212210473Y-131308750D01*
X211652027Y-131308750D01*
X211104311Y-131417698D01*
X210588374Y-131631406D01*
X210124043Y-131941662D01*
X209729162Y-132336543D01*
X209418906Y-132800874D01*
X209205198Y-133316811D01*
X209096250Y-133864527D01*
X209096250Y-134422973D01*
X209205198Y-134970689D01*
X209418906Y-135486626D01*
X209729162Y-135950957D01*
X210124043Y-136345838D01*
X210588374Y-136656094D01*
X210594786Y-136658750D01*
X67217714Y-136658750D01*
X67224126Y-136656094D01*
X67688457Y-136345838D01*
X68083338Y-135950957D01*
X68393594Y-135486626D01*
X68607302Y-134970689D01*
X68716250Y-134422973D01*
X68716250Y-133864527D01*
X68607302Y-133316811D01*
X68393594Y-132800874D01*
X68083338Y-132336543D01*
X67688457Y-131941662D01*
X67224126Y-131631406D01*
X66708189Y-131417698D01*
X66160473Y-131308750D01*
X65602027Y-131308750D01*
X65054311Y-131417698D01*
X64538374Y-131631406D01*
X64074043Y-131941662D01*
X63679162Y-132336543D01*
X63368906Y-132800874D01*
X63366250Y-132807286D01*
X63366250Y-129038126D01*
X63386815Y-129063185D01*
X63483506Y-129142537D01*
X63593820Y-129201502D01*
X63713518Y-129237812D01*
X63838000Y-129250072D01*
X64314250Y-129247000D01*
X64473000Y-129088250D01*
X64473000Y-127977000D01*
X64727000Y-127977000D01*
X64727000Y-129088250D01*
X64885750Y-129247000D01*
X65362000Y-129250072D01*
X65486482Y-129237812D01*
X65606180Y-129201502D01*
X65716494Y-129142537D01*
X65813185Y-129063185D01*
X65892537Y-128966494D01*
X65951502Y-128856180D01*
X65987812Y-128736482D01*
X66000072Y-128612000D01*
X65997000Y-128135750D01*
X65838250Y-127977000D01*
X64727000Y-127977000D01*
X64473000Y-127977000D01*
X64453000Y-127977000D01*
X64453000Y-127723000D01*
X64473000Y-127723000D01*
X64473000Y-126611750D01*
X64727000Y-126611750D01*
X64727000Y-127723000D01*
X65838250Y-127723000D01*
X65997000Y-127564250D01*
X66000072Y-127088000D01*
X65987812Y-126963518D01*
X65951502Y-126843820D01*
X65892537Y-126733506D01*
X65813185Y-126636815D01*
X65716494Y-126557463D01*
X65606180Y-126498498D01*
X65486482Y-126462188D01*
X65362000Y-126449928D01*
X64885750Y-126453000D01*
X64727000Y-126611750D01*
X64473000Y-126611750D01*
X64314250Y-126453000D01*
X63838000Y-126449928D01*
X63713518Y-126462188D01*
X63593820Y-126498498D01*
X63483506Y-126557463D01*
X63386815Y-126636815D01*
X63366250Y-126661874D01*
X63366250Y-120800000D01*
X72861202Y-120800000D01*
X72865000Y-120838561D01*
X72865001Y-132461429D01*
X72861202Y-132500000D01*
X72876359Y-132653887D01*
X72921246Y-132801860D01*
X72994138Y-132938233D01*
X73092236Y-133057764D01*
X73211767Y-133155862D01*
X73348140Y-133228754D01*
X73496113Y-133273641D01*
X73611439Y-133285000D01*
X73611440Y-133285000D01*
X73650000Y-133288798D01*
X73688561Y-133285000D01*
X85311440Y-133285000D01*
X85350000Y-133288798D01*
X85503887Y-133273641D01*
X85651860Y-133228754D01*
X85788233Y-133155862D01*
X85907764Y-133057764D01*
X86005862Y-132938233D01*
X86078754Y-132801860D01*
X86123641Y-132653887D01*
X86135000Y-132538561D01*
X86138798Y-132500000D01*
X86135000Y-132461439D01*
X86135000Y-120838561D01*
X86138798Y-120800000D01*
X86123641Y-120646113D01*
X86078754Y-120498140D01*
X86005862Y-120361767D01*
X85907764Y-120242236D01*
X85795376Y-120150000D01*
X95548702Y-120150000D01*
X95552500Y-120188561D01*
X95552501Y-133811429D01*
X95548702Y-133850000D01*
X95563859Y-134003887D01*
X95608746Y-134151860D01*
X95681638Y-134288233D01*
X95779736Y-134407764D01*
X95899267Y-134505862D01*
X96035640Y-134578754D01*
X96183613Y-134623641D01*
X96298939Y-134635000D01*
X96298940Y-134635000D01*
X96337500Y-134638798D01*
X96376061Y-134635000D01*
X109998940Y-134635000D01*
X110037500Y-134638798D01*
X110191387Y-134623641D01*
X110339360Y-134578754D01*
X110475733Y-134505862D01*
X110595264Y-134407764D01*
X110693362Y-134288233D01*
X110766254Y-134151860D01*
X110811141Y-134003887D01*
X110822500Y-133888561D01*
X110826298Y-133850000D01*
X110822500Y-133811439D01*
X110822500Y-120188561D01*
X110826298Y-120150000D01*
X119361202Y-120150000D01*
X119365000Y-120188561D01*
X119365001Y-133811429D01*
X119361202Y-133850000D01*
X119376359Y-134003887D01*
X119421246Y-134151860D01*
X119494138Y-134288233D01*
X119592236Y-134407764D01*
X119711767Y-134505862D01*
X119848140Y-134578754D01*
X119996113Y-134623641D01*
X120111439Y-134635000D01*
X120111440Y-134635000D01*
X120150000Y-134638798D01*
X120188561Y-134635000D01*
X133811440Y-134635000D01*
X133850000Y-134638798D01*
X134003887Y-134623641D01*
X134151860Y-134578754D01*
X134288233Y-134505862D01*
X134407764Y-134407764D01*
X134505862Y-134288233D01*
X134578754Y-134151860D01*
X134623641Y-134003887D01*
X134635000Y-133888561D01*
X134638798Y-133850000D01*
X134635000Y-133811439D01*
X134635000Y-120188561D01*
X134638798Y-120150000D01*
X143173702Y-120150000D01*
X143177500Y-120188561D01*
X143177501Y-133811429D01*
X143173702Y-133850000D01*
X143188859Y-134003887D01*
X143233746Y-134151860D01*
X143306638Y-134288233D01*
X143404736Y-134407764D01*
X143524267Y-134505862D01*
X143660640Y-134578754D01*
X143808613Y-134623641D01*
X143923939Y-134635000D01*
X143923940Y-134635000D01*
X143962500Y-134638798D01*
X144001061Y-134635000D01*
X157623940Y-134635000D01*
X157662500Y-134638798D01*
X157816387Y-134623641D01*
X157964360Y-134578754D01*
X158100733Y-134505862D01*
X158220264Y-134407764D01*
X158318362Y-134288233D01*
X158391254Y-134151860D01*
X158436141Y-134003887D01*
X158447500Y-133888561D01*
X158451298Y-133850000D01*
X158447500Y-133811439D01*
X158447500Y-120188561D01*
X158451298Y-120150000D01*
X166986202Y-120150000D01*
X166990000Y-120188561D01*
X166990001Y-133811429D01*
X166986202Y-133850000D01*
X167001359Y-134003887D01*
X167046246Y-134151860D01*
X167119138Y-134288233D01*
X167217236Y-134407764D01*
X167336767Y-134505862D01*
X167473140Y-134578754D01*
X167621113Y-134623641D01*
X167736439Y-134635000D01*
X167736440Y-134635000D01*
X167775000Y-134638798D01*
X167813561Y-134635000D01*
X181436440Y-134635000D01*
X181475000Y-134638798D01*
X181628887Y-134623641D01*
X181776860Y-134578754D01*
X181913233Y-134505862D01*
X182032764Y-134407764D01*
X182130862Y-134288233D01*
X182203754Y-134151860D01*
X182248641Y-134003887D01*
X182260000Y-133888561D01*
X182263798Y-133850000D01*
X182260000Y-133811439D01*
X182260000Y-120800000D01*
X191911202Y-120800000D01*
X191915000Y-120838561D01*
X191915001Y-132461429D01*
X191911202Y-132500000D01*
X191926359Y-132653887D01*
X191971246Y-132801860D01*
X192044138Y-132938233D01*
X192142236Y-133057764D01*
X192261767Y-133155862D01*
X192398140Y-133228754D01*
X192546113Y-133273641D01*
X192661439Y-133285000D01*
X192661440Y-133285000D01*
X192700000Y-133288798D01*
X192738561Y-133285000D01*
X204361440Y-133285000D01*
X204400000Y-133288798D01*
X204553887Y-133273641D01*
X204701860Y-133228754D01*
X204838233Y-133155862D01*
X204957764Y-133057764D01*
X205055862Y-132938233D01*
X205128754Y-132801860D01*
X205173641Y-132653887D01*
X205185000Y-132538561D01*
X205188798Y-132500000D01*
X205185000Y-132461439D01*
X205185000Y-128912000D01*
X211949928Y-128912000D01*
X211962188Y-129036482D01*
X211998498Y-129156180D01*
X212057463Y-129266494D01*
X212136815Y-129363185D01*
X212233506Y-129442537D01*
X212343820Y-129501502D01*
X212463518Y-129537812D01*
X212588000Y-129550072D01*
X213064250Y-129547000D01*
X213223000Y-129388250D01*
X213223000Y-128277000D01*
X212111750Y-128277000D01*
X211953000Y-128435750D01*
X211949928Y-128912000D01*
X205185000Y-128912000D01*
X205185000Y-127388000D01*
X211949928Y-127388000D01*
X211953000Y-127864250D01*
X212111750Y-128023000D01*
X213223000Y-128023000D01*
X213223000Y-126911750D01*
X213064250Y-126753000D01*
X212588000Y-126749928D01*
X212463518Y-126762188D01*
X212343820Y-126798498D01*
X212233506Y-126857463D01*
X212136815Y-126936815D01*
X212057463Y-127033506D01*
X211998498Y-127143820D01*
X211962188Y-127263518D01*
X211949928Y-127388000D01*
X205185000Y-127388000D01*
X205185000Y-120838561D01*
X205188798Y-120800000D01*
X205173641Y-120646113D01*
X205128754Y-120498140D01*
X205055862Y-120361767D01*
X204957764Y-120242236D01*
X204838233Y-120144138D01*
X204701860Y-120071246D01*
X204553887Y-120026359D01*
X204438561Y-120015000D01*
X204438560Y-120015000D01*
X204400000Y-120011202D01*
X204361439Y-120015000D01*
X192738560Y-120015000D01*
X192700000Y-120011202D01*
X192661439Y-120015000D01*
X192546113Y-120026359D01*
X192398140Y-120071246D01*
X192261767Y-120144138D01*
X192142236Y-120242236D01*
X192044138Y-120361767D01*
X191971246Y-120498140D01*
X191926359Y-120646113D01*
X191911202Y-120800000D01*
X182260000Y-120800000D01*
X182260000Y-120188561D01*
X182263798Y-120150000D01*
X182248641Y-119996113D01*
X182203754Y-119848140D01*
X182130862Y-119711767D01*
X182032764Y-119592236D01*
X181913233Y-119494138D01*
X181776860Y-119421246D01*
X181628887Y-119376359D01*
X181513561Y-119365000D01*
X181513560Y-119365000D01*
X181475000Y-119361202D01*
X181436439Y-119365000D01*
X167813560Y-119365000D01*
X167775000Y-119361202D01*
X167736439Y-119365000D01*
X167621113Y-119376359D01*
X167473140Y-119421246D01*
X167336767Y-119494138D01*
X167217236Y-119592236D01*
X167119138Y-119711767D01*
X167046246Y-119848140D01*
X167001359Y-119996113D01*
X166986202Y-120150000D01*
X158451298Y-120150000D01*
X158436141Y-119996113D01*
X158391254Y-119848140D01*
X158318362Y-119711767D01*
X158220264Y-119592236D01*
X158100733Y-119494138D01*
X157964360Y-119421246D01*
X157816387Y-119376359D01*
X157701061Y-119365000D01*
X157701060Y-119365000D01*
X157662500Y-119361202D01*
X157623939Y-119365000D01*
X144001060Y-119365000D01*
X143962500Y-119361202D01*
X143923939Y-119365000D01*
X143808613Y-119376359D01*
X143660640Y-119421246D01*
X143524267Y-119494138D01*
X143404736Y-119592236D01*
X143306638Y-119711767D01*
X143233746Y-119848140D01*
X143188859Y-119996113D01*
X143173702Y-120150000D01*
X134638798Y-120150000D01*
X134623641Y-119996113D01*
X134578754Y-119848140D01*
X134505862Y-119711767D01*
X134407764Y-119592236D01*
X134288233Y-119494138D01*
X134151860Y-119421246D01*
X134003887Y-119376359D01*
X133888561Y-119365000D01*
X133888560Y-119365000D01*
X133850000Y-119361202D01*
X133811439Y-119365000D01*
X120188560Y-119365000D01*
X120150000Y-119361202D01*
X120111439Y-119365000D01*
X119996113Y-119376359D01*
X119848140Y-119421246D01*
X119711767Y-119494138D01*
X119592236Y-119592236D01*
X119494138Y-119711767D01*
X119421246Y-119848140D01*
X119376359Y-119996113D01*
X119361202Y-120150000D01*
X110826298Y-120150000D01*
X110811141Y-119996113D01*
X110766254Y-119848140D01*
X110693362Y-119711767D01*
X110595264Y-119592236D01*
X110475733Y-119494138D01*
X110339360Y-119421246D01*
X110191387Y-119376359D01*
X110076061Y-119365000D01*
X110076060Y-119365000D01*
X110037500Y-119361202D01*
X109998939Y-119365000D01*
X96376060Y-119365000D01*
X96337500Y-119361202D01*
X96298939Y-119365000D01*
X96183613Y-119376359D01*
X96035640Y-119421246D01*
X95899267Y-119494138D01*
X95779736Y-119592236D01*
X95681638Y-119711767D01*
X95608746Y-119848140D01*
X95563859Y-119996113D01*
X95548702Y-120150000D01*
X85795376Y-120150000D01*
X85788233Y-120144138D01*
X85651860Y-120071246D01*
X85503887Y-120026359D01*
X85388561Y-120015000D01*
X85388560Y-120015000D01*
X85350000Y-120011202D01*
X85311439Y-120015000D01*
X73688560Y-120015000D01*
X73650000Y-120011202D01*
X73611439Y-120015000D01*
X73496113Y-120026359D01*
X73348140Y-120071246D01*
X73211767Y-120144138D01*
X73092236Y-120242236D01*
X72994138Y-120361767D01*
X72921246Y-120498140D01*
X72876359Y-120646113D01*
X72861202Y-120800000D01*
X63366250Y-120800000D01*
X63366250Y-91575000D01*
X71736202Y-91575000D01*
X71740000Y-91613561D01*
X71740001Y-105236429D01*
X71736202Y-105275000D01*
X71751359Y-105428887D01*
X71796246Y-105576860D01*
X71869138Y-105713233D01*
X71967236Y-105832764D01*
X72086767Y-105930862D01*
X72223140Y-106003754D01*
X72371113Y-106048641D01*
X72486439Y-106060000D01*
X72486440Y-106060000D01*
X72525000Y-106063798D01*
X72563561Y-106060000D01*
X86186440Y-106060000D01*
X86225000Y-106063798D01*
X86378887Y-106048641D01*
X86526860Y-106003754D01*
X86663233Y-105930862D01*
X86782764Y-105832764D01*
X86880862Y-105713233D01*
X86953754Y-105576860D01*
X86998641Y-105428887D01*
X87010000Y-105313561D01*
X87013798Y-105275000D01*
X87010000Y-105236439D01*
X87010000Y-91613561D01*
X87013798Y-91575000D01*
X95548702Y-91575000D01*
X95552500Y-91613561D01*
X95552501Y-105236429D01*
X95548702Y-105275000D01*
X95563859Y-105428887D01*
X95608746Y-105576860D01*
X95681638Y-105713233D01*
X95779736Y-105832764D01*
X95899267Y-105930862D01*
X96035640Y-106003754D01*
X96183613Y-106048641D01*
X96298939Y-106060000D01*
X96298940Y-106060000D01*
X96337500Y-106063798D01*
X96376061Y-106060000D01*
X109998940Y-106060000D01*
X110037500Y-106063798D01*
X110191387Y-106048641D01*
X110339360Y-106003754D01*
X110475733Y-105930862D01*
X110595264Y-105832764D01*
X110693362Y-105713233D01*
X110766254Y-105576860D01*
X110811141Y-105428887D01*
X110822500Y-105313561D01*
X110826298Y-105275000D01*
X110822500Y-105236439D01*
X110822500Y-91613561D01*
X110826298Y-91575000D01*
X119361202Y-91575000D01*
X119365000Y-91613561D01*
X119365001Y-105236429D01*
X119361202Y-105275000D01*
X119376359Y-105428887D01*
X119421246Y-105576860D01*
X119494138Y-105713233D01*
X119592236Y-105832764D01*
X119711767Y-105930862D01*
X119848140Y-106003754D01*
X119996113Y-106048641D01*
X120111439Y-106060000D01*
X120111440Y-106060000D01*
X120150000Y-106063798D01*
X120188561Y-106060000D01*
X133811440Y-106060000D01*
X133850000Y-106063798D01*
X134003887Y-106048641D01*
X134151860Y-106003754D01*
X134288233Y-105930862D01*
X134407764Y-105832764D01*
X134505862Y-105713233D01*
X134578754Y-105576860D01*
X134623641Y-105428887D01*
X134635000Y-105313561D01*
X134638798Y-105275000D01*
X134635000Y-105236439D01*
X134635000Y-91613561D01*
X134638798Y-91575000D01*
X143173702Y-91575000D01*
X143177500Y-91613561D01*
X143177501Y-105236429D01*
X143173702Y-105275000D01*
X143188859Y-105428887D01*
X143233746Y-105576860D01*
X143306638Y-105713233D01*
X143404736Y-105832764D01*
X143524267Y-105930862D01*
X143660640Y-106003754D01*
X143808613Y-106048641D01*
X143923939Y-106060000D01*
X143923940Y-106060000D01*
X143962500Y-106063798D01*
X144001061Y-106060000D01*
X157623940Y-106060000D01*
X157662500Y-106063798D01*
X157816387Y-106048641D01*
X157964360Y-106003754D01*
X158100733Y-105930862D01*
X158220264Y-105832764D01*
X158318362Y-105713233D01*
X158391254Y-105576860D01*
X158436141Y-105428887D01*
X158447500Y-105313561D01*
X158451298Y-105275000D01*
X158447500Y-105236439D01*
X158447500Y-91613561D01*
X158451298Y-91575000D01*
X166986202Y-91575000D01*
X166990000Y-91613561D01*
X166990001Y-105236429D01*
X166986202Y-105275000D01*
X167001359Y-105428887D01*
X167046246Y-105576860D01*
X167119138Y-105713233D01*
X167217236Y-105832764D01*
X167336767Y-105930862D01*
X167473140Y-106003754D01*
X167621113Y-106048641D01*
X167736439Y-106060000D01*
X167736440Y-106060000D01*
X167775000Y-106063798D01*
X167813561Y-106060000D01*
X181436440Y-106060000D01*
X181475000Y-106063798D01*
X181628887Y-106048641D01*
X181776860Y-106003754D01*
X181913233Y-105930862D01*
X182032764Y-105832764D01*
X182130862Y-105713233D01*
X182203754Y-105576860D01*
X182248641Y-105428887D01*
X182260000Y-105313561D01*
X182263798Y-105275000D01*
X182260000Y-105236439D01*
X182260000Y-91613561D01*
X182263798Y-91575000D01*
X190798702Y-91575000D01*
X190802500Y-91613561D01*
X190802501Y-105236429D01*
X190798702Y-105275000D01*
X190813859Y-105428887D01*
X190858746Y-105576860D01*
X190931638Y-105713233D01*
X191029736Y-105832764D01*
X191149267Y-105930862D01*
X191285640Y-106003754D01*
X191433613Y-106048641D01*
X191548939Y-106060000D01*
X191548940Y-106060000D01*
X191587500Y-106063798D01*
X191626061Y-106060000D01*
X205248940Y-106060000D01*
X205287500Y-106063798D01*
X205441387Y-106048641D01*
X205589360Y-106003754D01*
X205725733Y-105930862D01*
X205845264Y-105832764D01*
X205943362Y-105713233D01*
X206016254Y-105576860D01*
X206061141Y-105428887D01*
X206072500Y-105313561D01*
X206076298Y-105275000D01*
X206072500Y-105236439D01*
X206072500Y-91613561D01*
X206076298Y-91575000D01*
X206061141Y-91421113D01*
X206016254Y-91273140D01*
X205943362Y-91136767D01*
X205845264Y-91017236D01*
X205725733Y-90919138D01*
X205589360Y-90846246D01*
X205441387Y-90801359D01*
X205326061Y-90790000D01*
X205326060Y-90790000D01*
X205287500Y-90786202D01*
X205248939Y-90790000D01*
X191626060Y-90790000D01*
X191587500Y-90786202D01*
X191548939Y-90790000D01*
X191433613Y-90801359D01*
X191285640Y-90846246D01*
X191149267Y-90919138D01*
X191029736Y-91017236D01*
X190931638Y-91136767D01*
X190858746Y-91273140D01*
X190813859Y-91421113D01*
X190798702Y-91575000D01*
X182263798Y-91575000D01*
X182248641Y-91421113D01*
X182203754Y-91273140D01*
X182130862Y-91136767D01*
X182032764Y-91017236D01*
X181913233Y-90919138D01*
X181776860Y-90846246D01*
X181628887Y-90801359D01*
X181513561Y-90790000D01*
X181513560Y-90790000D01*
X181475000Y-90786202D01*
X181436439Y-90790000D01*
X167813560Y-90790000D01*
X167775000Y-90786202D01*
X167736439Y-90790000D01*
X167621113Y-90801359D01*
X167473140Y-90846246D01*
X167336767Y-90919138D01*
X167217236Y-91017236D01*
X167119138Y-91136767D01*
X167046246Y-91273140D01*
X167001359Y-91421113D01*
X166986202Y-91575000D01*
X158451298Y-91575000D01*
X158436141Y-91421113D01*
X158391254Y-91273140D01*
X158318362Y-91136767D01*
X158220264Y-91017236D01*
X158100733Y-90919138D01*
X157964360Y-90846246D01*
X157816387Y-90801359D01*
X157701061Y-90790000D01*
X157701060Y-90790000D01*
X157662500Y-90786202D01*
X157623939Y-90790000D01*
X144001060Y-90790000D01*
X143962500Y-90786202D01*
X143923939Y-90790000D01*
X143808613Y-90801359D01*
X143660640Y-90846246D01*
X143524267Y-90919138D01*
X143404736Y-91017236D01*
X143306638Y-91136767D01*
X143233746Y-91273140D01*
X143188859Y-91421113D01*
X143173702Y-91575000D01*
X134638798Y-91575000D01*
X134623641Y-91421113D01*
X134578754Y-91273140D01*
X134505862Y-91136767D01*
X134407764Y-91017236D01*
X134288233Y-90919138D01*
X134151860Y-90846246D01*
X134003887Y-90801359D01*
X133888561Y-90790000D01*
X133888560Y-90790000D01*
X133850000Y-90786202D01*
X133811439Y-90790000D01*
X120188560Y-90790000D01*
X120150000Y-90786202D01*
X120111439Y-90790000D01*
X119996113Y-90801359D01*
X119848140Y-90846246D01*
X119711767Y-90919138D01*
X119592236Y-91017236D01*
X119494138Y-91136767D01*
X119421246Y-91273140D01*
X119376359Y-91421113D01*
X119361202Y-91575000D01*
X110826298Y-91575000D01*
X110811141Y-91421113D01*
X110766254Y-91273140D01*
X110693362Y-91136767D01*
X110595264Y-91017236D01*
X110475733Y-90919138D01*
X110339360Y-90846246D01*
X110191387Y-90801359D01*
X110076061Y-90790000D01*
X110076060Y-90790000D01*
X110037500Y-90786202D01*
X109998939Y-90790000D01*
X96376060Y-90790000D01*
X96337500Y-90786202D01*
X96298939Y-90790000D01*
X96183613Y-90801359D01*
X96035640Y-90846246D01*
X95899267Y-90919138D01*
X95779736Y-91017236D01*
X95681638Y-91136767D01*
X95608746Y-91273140D01*
X95563859Y-91421113D01*
X95548702Y-91575000D01*
X87013798Y-91575000D01*
X86998641Y-91421113D01*
X86953754Y-91273140D01*
X86880862Y-91136767D01*
X86782764Y-91017236D01*
X86663233Y-90919138D01*
X86526860Y-90846246D01*
X86378887Y-90801359D01*
X86263561Y-90790000D01*
X86263560Y-90790000D01*
X86225000Y-90786202D01*
X86186439Y-90790000D01*
X72563560Y-90790000D01*
X72525000Y-90786202D01*
X72486439Y-90790000D01*
X72371113Y-90801359D01*
X72223140Y-90846246D01*
X72086767Y-90919138D01*
X71967236Y-91017236D01*
X71869138Y-91136767D01*
X71796246Y-91273140D01*
X71751359Y-91421113D01*
X71736202Y-91575000D01*
X63366250Y-91575000D01*
X63366250Y-73567714D01*
X63368906Y-73574126D01*
X63679162Y-74038457D01*
X64074043Y-74433338D01*
X64538374Y-74743594D01*
X65054311Y-74957302D01*
X65602027Y-75066250D01*
X66160473Y-75066250D01*
X66708189Y-74957302D01*
X67224126Y-74743594D01*
X67688457Y-74433338D01*
X68083338Y-74038457D01*
X68393594Y-73574126D01*
X68607302Y-73058189D01*
X68713360Y-72525000D01*
X71736202Y-72525000D01*
X71740000Y-72563561D01*
X71740001Y-86186429D01*
X71736202Y-86225000D01*
X71751359Y-86378887D01*
X71796246Y-86526860D01*
X71869138Y-86663233D01*
X71967236Y-86782764D01*
X72086767Y-86880862D01*
X72223140Y-86953754D01*
X72371113Y-86998641D01*
X72486439Y-87010000D01*
X72486440Y-87010000D01*
X72525000Y-87013798D01*
X72563561Y-87010000D01*
X86186440Y-87010000D01*
X86225000Y-87013798D01*
X86378887Y-86998641D01*
X86526860Y-86953754D01*
X86663233Y-86880862D01*
X86782764Y-86782764D01*
X86880862Y-86663233D01*
X86953754Y-86526860D01*
X86998641Y-86378887D01*
X87010000Y-86263561D01*
X87013798Y-86225000D01*
X87010000Y-86186439D01*
X87010000Y-72563561D01*
X87013798Y-72525000D01*
X95548702Y-72525000D01*
X95552500Y-72563561D01*
X95552501Y-86186429D01*
X95548702Y-86225000D01*
X95563859Y-86378887D01*
X95608746Y-86526860D01*
X95681638Y-86663233D01*
X95779736Y-86782764D01*
X95899267Y-86880862D01*
X96035640Y-86953754D01*
X96183613Y-86998641D01*
X96298939Y-87010000D01*
X96298940Y-87010000D01*
X96337500Y-87013798D01*
X96376061Y-87010000D01*
X109998940Y-87010000D01*
X110037500Y-87013798D01*
X110191387Y-86998641D01*
X110339360Y-86953754D01*
X110475733Y-86880862D01*
X110595264Y-86782764D01*
X110693362Y-86663233D01*
X110766254Y-86526860D01*
X110811141Y-86378887D01*
X110822500Y-86263561D01*
X110826298Y-86225000D01*
X110822500Y-86186439D01*
X110822500Y-72563561D01*
X110826298Y-72525000D01*
X119361202Y-72525000D01*
X119365000Y-72563561D01*
X119365001Y-86186429D01*
X119361202Y-86225000D01*
X119376359Y-86378887D01*
X119421246Y-86526860D01*
X119494138Y-86663233D01*
X119592236Y-86782764D01*
X119711767Y-86880862D01*
X119848140Y-86953754D01*
X119996113Y-86998641D01*
X120111439Y-87010000D01*
X120111440Y-87010000D01*
X120150000Y-87013798D01*
X120188561Y-87010000D01*
X133811440Y-87010000D01*
X133850000Y-87013798D01*
X134003887Y-86998641D01*
X134151860Y-86953754D01*
X134288233Y-86880862D01*
X134407764Y-86782764D01*
X134505862Y-86663233D01*
X134578754Y-86526860D01*
X134623641Y-86378887D01*
X134635000Y-86263561D01*
X134638798Y-86225000D01*
X134635000Y-86186439D01*
X134635000Y-72563561D01*
X134638798Y-72525000D01*
X143173702Y-72525000D01*
X143177500Y-72563561D01*
X143177501Y-86186429D01*
X143173702Y-86225000D01*
X143188859Y-86378887D01*
X143233746Y-86526860D01*
X143306638Y-86663233D01*
X143404736Y-86782764D01*
X143524267Y-86880862D01*
X143660640Y-86953754D01*
X143808613Y-86998641D01*
X143923939Y-87010000D01*
X143923940Y-87010000D01*
X143962500Y-87013798D01*
X144001061Y-87010000D01*
X157623940Y-87010000D01*
X157662500Y-87013798D01*
X157816387Y-86998641D01*
X157964360Y-86953754D01*
X158100733Y-86880862D01*
X158220264Y-86782764D01*
X158318362Y-86663233D01*
X158391254Y-86526860D01*
X158436141Y-86378887D01*
X158447500Y-86263561D01*
X158451298Y-86225000D01*
X158447500Y-86186439D01*
X158447500Y-72563561D01*
X158451298Y-72525000D01*
X166986202Y-72525000D01*
X166990000Y-72563561D01*
X166990001Y-86186429D01*
X166986202Y-86225000D01*
X167001359Y-86378887D01*
X167046246Y-86526860D01*
X167119138Y-86663233D01*
X167217236Y-86782764D01*
X167336767Y-86880862D01*
X167473140Y-86953754D01*
X167621113Y-86998641D01*
X167736439Y-87010000D01*
X167736440Y-87010000D01*
X167775000Y-87013798D01*
X167813561Y-87010000D01*
X181436440Y-87010000D01*
X181475000Y-87013798D01*
X181628887Y-86998641D01*
X181776860Y-86953754D01*
X181913233Y-86880862D01*
X182032764Y-86782764D01*
X182130862Y-86663233D01*
X182203754Y-86526860D01*
X182248641Y-86378887D01*
X182260000Y-86263561D01*
X182263798Y-86225000D01*
X182260000Y-86186439D01*
X182260000Y-72563561D01*
X182263798Y-72525000D01*
X190798702Y-72525000D01*
X190802500Y-72563561D01*
X190802501Y-86186429D01*
X190798702Y-86225000D01*
X190813859Y-86378887D01*
X190858746Y-86526860D01*
X190931638Y-86663233D01*
X191029736Y-86782764D01*
X191149267Y-86880862D01*
X191285640Y-86953754D01*
X191433613Y-86998641D01*
X191548939Y-87010000D01*
X191548940Y-87010000D01*
X191587500Y-87013798D01*
X191626061Y-87010000D01*
X205248940Y-87010000D01*
X205287500Y-87013798D01*
X205441387Y-86998641D01*
X205589360Y-86953754D01*
X205725733Y-86880862D01*
X205845264Y-86782764D01*
X205943362Y-86663233D01*
X206016254Y-86526860D01*
X206061141Y-86378887D01*
X206072500Y-86263561D01*
X206076298Y-86225000D01*
X206072500Y-86186439D01*
X206072500Y-72563561D01*
X206076298Y-72525000D01*
X206061141Y-72371113D01*
X206016254Y-72223140D01*
X205943362Y-72086767D01*
X205845264Y-71967236D01*
X205725733Y-71869138D01*
X205589360Y-71796246D01*
X205441387Y-71751359D01*
X205326061Y-71740000D01*
X205326060Y-71740000D01*
X205287500Y-71736202D01*
X205248939Y-71740000D01*
X191626060Y-71740000D01*
X191587500Y-71736202D01*
X191548939Y-71740000D01*
X191433613Y-71751359D01*
X191285640Y-71796246D01*
X191149267Y-71869138D01*
X191029736Y-71967236D01*
X190931638Y-72086767D01*
X190858746Y-72223140D01*
X190813859Y-72371113D01*
X190798702Y-72525000D01*
X182263798Y-72525000D01*
X182248641Y-72371113D01*
X182203754Y-72223140D01*
X182130862Y-72086767D01*
X182032764Y-71967236D01*
X181913233Y-71869138D01*
X181776860Y-71796246D01*
X181628887Y-71751359D01*
X181513561Y-71740000D01*
X181513560Y-71740000D01*
X181475000Y-71736202D01*
X181436439Y-71740000D01*
X167813560Y-71740000D01*
X167775000Y-71736202D01*
X167736439Y-71740000D01*
X167621113Y-71751359D01*
X167473140Y-71796246D01*
X167336767Y-71869138D01*
X167217236Y-71967236D01*
X167119138Y-72086767D01*
X167046246Y-72223140D01*
X167001359Y-72371113D01*
X166986202Y-72525000D01*
X158451298Y-72525000D01*
X158436141Y-72371113D01*
X158391254Y-72223140D01*
X158318362Y-72086767D01*
X158220264Y-71967236D01*
X158100733Y-71869138D01*
X157964360Y-71796246D01*
X157816387Y-71751359D01*
X157701061Y-71740000D01*
X157701060Y-71740000D01*
X157662500Y-71736202D01*
X157623939Y-71740000D01*
X144001060Y-71740000D01*
X143962500Y-71736202D01*
X143923939Y-71740000D01*
X143808613Y-71751359D01*
X143660640Y-71796246D01*
X143524267Y-71869138D01*
X143404736Y-71967236D01*
X143306638Y-72086767D01*
X143233746Y-72223140D01*
X143188859Y-72371113D01*
X143173702Y-72525000D01*
X134638798Y-72525000D01*
X134623641Y-72371113D01*
X134578754Y-72223140D01*
X134505862Y-72086767D01*
X134407764Y-71967236D01*
X134288233Y-71869138D01*
X134151860Y-71796246D01*
X134003887Y-71751359D01*
X133888561Y-71740000D01*
X133888560Y-71740000D01*
X133850000Y-71736202D01*
X133811439Y-71740000D01*
X120188560Y-71740000D01*
X120150000Y-71736202D01*
X120111439Y-71740000D01*
X119996113Y-71751359D01*
X119848140Y-71796246D01*
X119711767Y-71869138D01*
X119592236Y-71967236D01*
X119494138Y-72086767D01*
X119421246Y-72223140D01*
X119376359Y-72371113D01*
X119361202Y-72525000D01*
X110826298Y-72525000D01*
X110811141Y-72371113D01*
X110766254Y-72223140D01*
X110693362Y-72086767D01*
X110595264Y-71967236D01*
X110475733Y-71869138D01*
X110339360Y-71796246D01*
X110191387Y-71751359D01*
X110076061Y-71740000D01*
X110076060Y-71740000D01*
X110037500Y-71736202D01*
X109998939Y-71740000D01*
X96376060Y-71740000D01*
X96337500Y-71736202D01*
X96298939Y-71740000D01*
X96183613Y-71751359D01*
X96035640Y-71796246D01*
X95899267Y-71869138D01*
X95779736Y-71967236D01*
X95681638Y-72086767D01*
X95608746Y-72223140D01*
X95563859Y-72371113D01*
X95548702Y-72525000D01*
X87013798Y-72525000D01*
X86998641Y-72371113D01*
X86953754Y-72223140D01*
X86880862Y-72086767D01*
X86782764Y-71967236D01*
X86663233Y-71869138D01*
X86526860Y-71796246D01*
X86378887Y-71751359D01*
X86263561Y-71740000D01*
X86263560Y-71740000D01*
X86225000Y-71736202D01*
X86186439Y-71740000D01*
X72563560Y-71740000D01*
X72525000Y-71736202D01*
X72486439Y-71740000D01*
X72371113Y-71751359D01*
X72223140Y-71796246D01*
X72086767Y-71869138D01*
X71967236Y-71967236D01*
X71869138Y-72086767D01*
X71796246Y-72223140D01*
X71751359Y-72371113D01*
X71736202Y-72525000D01*
X68713360Y-72525000D01*
X68716250Y-72510473D01*
X68716250Y-71952027D01*
X68607302Y-71404311D01*
X68393594Y-70888374D01*
X68083338Y-70424043D01*
X67688457Y-70029162D01*
X67224126Y-69718906D01*
X67217714Y-69716250D01*
X210594786Y-69716250D01*
X210588374Y-69718906D01*
G04 #@! TA.AperFunction,Conductor*
D13*
G36*
X210588374Y-69718906D02*
G01*
X210124043Y-70029162D01*
X209729162Y-70424043D01*
X209418906Y-70888374D01*
X209205198Y-71404311D01*
X209096250Y-71952027D01*
X209096250Y-72510473D01*
X209205198Y-73058189D01*
X209418906Y-73574126D01*
X209729162Y-74038457D01*
X210124043Y-74433338D01*
X210588374Y-74743594D01*
X211104311Y-74957302D01*
X211652027Y-75066250D01*
X212210473Y-75066250D01*
X212758189Y-74957302D01*
X213274126Y-74743594D01*
X213738457Y-74433338D01*
X214133338Y-74038457D01*
X214443594Y-73574126D01*
X214446250Y-73567714D01*
X214446251Y-126846643D01*
X214356180Y-126798498D01*
X214236482Y-126762188D01*
X214112000Y-126749928D01*
X213635750Y-126753000D01*
X213477000Y-126911750D01*
X213477000Y-128023000D01*
X213497000Y-128023000D01*
X213497000Y-128277000D01*
X213477000Y-128277000D01*
X213477000Y-129388250D01*
X213635750Y-129547000D01*
X214112000Y-129550072D01*
X214236482Y-129537812D01*
X214356180Y-129501502D01*
X214446251Y-129453357D01*
X214446251Y-132807288D01*
X214443594Y-132800874D01*
X214133338Y-132336543D01*
X213738457Y-131941662D01*
X213274126Y-131631406D01*
X212758189Y-131417698D01*
X212210473Y-131308750D01*
X211652027Y-131308750D01*
X211104311Y-131417698D01*
X210588374Y-131631406D01*
X210124043Y-131941662D01*
X209729162Y-132336543D01*
X209418906Y-132800874D01*
X209205198Y-133316811D01*
X209096250Y-133864527D01*
X209096250Y-134422973D01*
X209205198Y-134970689D01*
X209418906Y-135486626D01*
X209729162Y-135950957D01*
X210124043Y-136345838D01*
X210588374Y-136656094D01*
X210594786Y-136658750D01*
X67217714Y-136658750D01*
X67224126Y-136656094D01*
X67688457Y-136345838D01*
X68083338Y-135950957D01*
X68393594Y-135486626D01*
X68607302Y-134970689D01*
X68716250Y-134422973D01*
X68716250Y-133864527D01*
X68607302Y-133316811D01*
X68393594Y-132800874D01*
X68083338Y-132336543D01*
X67688457Y-131941662D01*
X67224126Y-131631406D01*
X66708189Y-131417698D01*
X66160473Y-131308750D01*
X65602027Y-131308750D01*
X65054311Y-131417698D01*
X64538374Y-131631406D01*
X64074043Y-131941662D01*
X63679162Y-132336543D01*
X63368906Y-132800874D01*
X63366250Y-132807286D01*
X63366250Y-129038126D01*
X63386815Y-129063185D01*
X63483506Y-129142537D01*
X63593820Y-129201502D01*
X63713518Y-129237812D01*
X63838000Y-129250072D01*
X64314250Y-129247000D01*
X64473000Y-129088250D01*
X64473000Y-127977000D01*
X64727000Y-127977000D01*
X64727000Y-129088250D01*
X64885750Y-129247000D01*
X65362000Y-129250072D01*
X65486482Y-129237812D01*
X65606180Y-129201502D01*
X65716494Y-129142537D01*
X65813185Y-129063185D01*
X65892537Y-128966494D01*
X65951502Y-128856180D01*
X65987812Y-128736482D01*
X66000072Y-128612000D01*
X65997000Y-128135750D01*
X65838250Y-127977000D01*
X64727000Y-127977000D01*
X64473000Y-127977000D01*
X64453000Y-127977000D01*
X64453000Y-127723000D01*
X64473000Y-127723000D01*
X64473000Y-126611750D01*
X64727000Y-126611750D01*
X64727000Y-127723000D01*
X65838250Y-127723000D01*
X65997000Y-127564250D01*
X66000072Y-127088000D01*
X65987812Y-126963518D01*
X65951502Y-126843820D01*
X65892537Y-126733506D01*
X65813185Y-126636815D01*
X65716494Y-126557463D01*
X65606180Y-126498498D01*
X65486482Y-126462188D01*
X65362000Y-126449928D01*
X64885750Y-126453000D01*
X64727000Y-126611750D01*
X64473000Y-126611750D01*
X64314250Y-126453000D01*
X63838000Y-126449928D01*
X63713518Y-126462188D01*
X63593820Y-126498498D01*
X63483506Y-126557463D01*
X63386815Y-126636815D01*
X63366250Y-126661874D01*
X63366250Y-120800000D01*
X72861202Y-120800000D01*
X72865000Y-120838561D01*
X72865001Y-132461429D01*
X72861202Y-132500000D01*
X72876359Y-132653887D01*
X72921246Y-132801860D01*
X72994138Y-132938233D01*
X73092236Y-133057764D01*
X73211767Y-133155862D01*
X73348140Y-133228754D01*
X73496113Y-133273641D01*
X73611439Y-133285000D01*
X73611440Y-133285000D01*
X73650000Y-133288798D01*
X73688561Y-133285000D01*
X85311440Y-133285000D01*
X85350000Y-133288798D01*
X85503887Y-133273641D01*
X85651860Y-133228754D01*
X85788233Y-133155862D01*
X85907764Y-133057764D01*
X86005862Y-132938233D01*
X86078754Y-132801860D01*
X86123641Y-132653887D01*
X86135000Y-132538561D01*
X86138798Y-132500000D01*
X86135000Y-132461439D01*
X86135000Y-120838561D01*
X86138798Y-120800000D01*
X86123641Y-120646113D01*
X86078754Y-120498140D01*
X86005862Y-120361767D01*
X85907764Y-120242236D01*
X85795376Y-120150000D01*
X95548702Y-120150000D01*
X95552500Y-120188561D01*
X95552501Y-133811429D01*
X95548702Y-133850000D01*
X95563859Y-134003887D01*
X95608746Y-134151860D01*
X95681638Y-134288233D01*
X95779736Y-134407764D01*
X95899267Y-134505862D01*
X96035640Y-134578754D01*
X96183613Y-134623641D01*
X96298939Y-134635000D01*
X96298940Y-134635000D01*
X96337500Y-134638798D01*
X96376061Y-134635000D01*
X109998940Y-134635000D01*
X110037500Y-134638798D01*
X110191387Y-134623641D01*
X110339360Y-134578754D01*
X110475733Y-134505862D01*
X110595264Y-134407764D01*
X110693362Y-134288233D01*
X110766254Y-134151860D01*
X110811141Y-134003887D01*
X110822500Y-133888561D01*
X110826298Y-133850000D01*
X110822500Y-133811439D01*
X110822500Y-120188561D01*
X110826298Y-120150000D01*
X119361202Y-120150000D01*
X119365000Y-120188561D01*
X119365001Y-133811429D01*
X119361202Y-133850000D01*
X119376359Y-134003887D01*
X119421246Y-134151860D01*
X119494138Y-134288233D01*
X119592236Y-134407764D01*
X119711767Y-134505862D01*
X119848140Y-134578754D01*
X119996113Y-134623641D01*
X120111439Y-134635000D01*
X120111440Y-134635000D01*
X120150000Y-134638798D01*
X120188561Y-134635000D01*
X133811440Y-134635000D01*
X133850000Y-134638798D01*
X134003887Y-134623641D01*
X134151860Y-134578754D01*
X134288233Y-134505862D01*
X134407764Y-134407764D01*
X134505862Y-134288233D01*
X134578754Y-134151860D01*
X134623641Y-134003887D01*
X134635000Y-133888561D01*
X134638798Y-133850000D01*
X134635000Y-133811439D01*
X134635000Y-120188561D01*
X134638798Y-120150000D01*
X143173702Y-120150000D01*
X143177500Y-120188561D01*
X143177501Y-133811429D01*
X143173702Y-133850000D01*
X143188859Y-134003887D01*
X143233746Y-134151860D01*
X143306638Y-134288233D01*
X143404736Y-134407764D01*
X143524267Y-134505862D01*
X143660640Y-134578754D01*
X143808613Y-134623641D01*
X143923939Y-134635000D01*
X143923940Y-134635000D01*
X143962500Y-134638798D01*
X144001061Y-134635000D01*
X157623940Y-134635000D01*
X157662500Y-134638798D01*
X157816387Y-134623641D01*
X157964360Y-134578754D01*
X158100733Y-134505862D01*
X158220264Y-134407764D01*
X158318362Y-134288233D01*
X158391254Y-134151860D01*
X158436141Y-134003887D01*
X158447500Y-133888561D01*
X158451298Y-133850000D01*
X158447500Y-133811439D01*
X158447500Y-120188561D01*
X158451298Y-120150000D01*
X166986202Y-120150000D01*
X166990000Y-120188561D01*
X166990001Y-133811429D01*
X166986202Y-133850000D01*
X167001359Y-134003887D01*
X167046246Y-134151860D01*
X167119138Y-134288233D01*
X167217236Y-134407764D01*
X167336767Y-134505862D01*
X167473140Y-134578754D01*
X167621113Y-134623641D01*
X167736439Y-134635000D01*
X167736440Y-134635000D01*
X167775000Y-134638798D01*
X167813561Y-134635000D01*
X181436440Y-134635000D01*
X181475000Y-134638798D01*
X181628887Y-134623641D01*
X181776860Y-134578754D01*
X181913233Y-134505862D01*
X182032764Y-134407764D01*
X182130862Y-134288233D01*
X182203754Y-134151860D01*
X182248641Y-134003887D01*
X182260000Y-133888561D01*
X182263798Y-133850000D01*
X182260000Y-133811439D01*
X182260000Y-120800000D01*
X191911202Y-120800000D01*
X191915000Y-120838561D01*
X191915001Y-132461429D01*
X191911202Y-132500000D01*
X191926359Y-132653887D01*
X191971246Y-132801860D01*
X192044138Y-132938233D01*
X192142236Y-133057764D01*
X192261767Y-133155862D01*
X192398140Y-133228754D01*
X192546113Y-133273641D01*
X192661439Y-133285000D01*
X192661440Y-133285000D01*
X192700000Y-133288798D01*
X192738561Y-133285000D01*
X204361440Y-133285000D01*
X204400000Y-133288798D01*
X204553887Y-133273641D01*
X204701860Y-133228754D01*
X204838233Y-133155862D01*
X204957764Y-133057764D01*
X205055862Y-132938233D01*
X205128754Y-132801860D01*
X205173641Y-132653887D01*
X205185000Y-132538561D01*
X205188798Y-132500000D01*
X205185000Y-132461439D01*
X205185000Y-128912000D01*
X211949928Y-128912000D01*
X211962188Y-129036482D01*
X211998498Y-129156180D01*
X212057463Y-129266494D01*
X212136815Y-129363185D01*
X212233506Y-129442537D01*
X212343820Y-129501502D01*
X212463518Y-129537812D01*
X212588000Y-129550072D01*
X213064250Y-129547000D01*
X213223000Y-129388250D01*
X213223000Y-128277000D01*
X212111750Y-128277000D01*
X211953000Y-128435750D01*
X211949928Y-128912000D01*
X205185000Y-128912000D01*
X205185000Y-127388000D01*
X211949928Y-127388000D01*
X211953000Y-127864250D01*
X212111750Y-128023000D01*
X213223000Y-128023000D01*
X213223000Y-126911750D01*
X213064250Y-126753000D01*
X212588000Y-126749928D01*
X212463518Y-126762188D01*
X212343820Y-126798498D01*
X212233506Y-126857463D01*
X212136815Y-126936815D01*
X212057463Y-127033506D01*
X211998498Y-127143820D01*
X211962188Y-127263518D01*
X211949928Y-127388000D01*
X205185000Y-127388000D01*
X205185000Y-120838561D01*
X205188798Y-120800000D01*
X205173641Y-120646113D01*
X205128754Y-120498140D01*
X205055862Y-120361767D01*
X204957764Y-120242236D01*
X204838233Y-120144138D01*
X204701860Y-120071246D01*
X204553887Y-120026359D01*
X204438561Y-120015000D01*
X204438560Y-120015000D01*
X204400000Y-120011202D01*
X204361439Y-120015000D01*
X192738560Y-120015000D01*
X192700000Y-120011202D01*
X192661439Y-120015000D01*
X192546113Y-120026359D01*
X192398140Y-120071246D01*
X192261767Y-120144138D01*
X192142236Y-120242236D01*
X192044138Y-120361767D01*
X191971246Y-120498140D01*
X191926359Y-120646113D01*
X191911202Y-120800000D01*
X182260000Y-120800000D01*
X182260000Y-120188561D01*
X182263798Y-120150000D01*
X182248641Y-119996113D01*
X182203754Y-119848140D01*
X182130862Y-119711767D01*
X182032764Y-119592236D01*
X181913233Y-119494138D01*
X181776860Y-119421246D01*
X181628887Y-119376359D01*
X181513561Y-119365000D01*
X181513560Y-119365000D01*
X181475000Y-119361202D01*
X181436439Y-119365000D01*
X167813560Y-119365000D01*
X167775000Y-119361202D01*
X167736439Y-119365000D01*
X167621113Y-119376359D01*
X167473140Y-119421246D01*
X167336767Y-119494138D01*
X167217236Y-119592236D01*
X167119138Y-119711767D01*
X167046246Y-119848140D01*
X167001359Y-119996113D01*
X166986202Y-120150000D01*
X158451298Y-120150000D01*
X158436141Y-119996113D01*
X158391254Y-119848140D01*
X158318362Y-119711767D01*
X158220264Y-119592236D01*
X158100733Y-119494138D01*
X157964360Y-119421246D01*
X157816387Y-119376359D01*
X157701061Y-119365000D01*
X157701060Y-119365000D01*
X157662500Y-119361202D01*
X157623939Y-119365000D01*
X144001060Y-119365000D01*
X143962500Y-119361202D01*
X143923939Y-119365000D01*
X143808613Y-119376359D01*
X143660640Y-119421246D01*
X143524267Y-119494138D01*
X143404736Y-119592236D01*
X143306638Y-119711767D01*
X143233746Y-119848140D01*
X143188859Y-119996113D01*
X143173702Y-120150000D01*
X134638798Y-120150000D01*
X134623641Y-119996113D01*
X134578754Y-119848140D01*
X134505862Y-119711767D01*
X134407764Y-119592236D01*
X134288233Y-119494138D01*
X134151860Y-119421246D01*
X134003887Y-119376359D01*
X133888561Y-119365000D01*
X133888560Y-119365000D01*
X133850000Y-119361202D01*
X133811439Y-119365000D01*
X120188560Y-119365000D01*
X120150000Y-119361202D01*
X120111439Y-119365000D01*
X119996113Y-119376359D01*
X119848140Y-119421246D01*
X119711767Y-119494138D01*
X119592236Y-119592236D01*
X119494138Y-119711767D01*
X119421246Y-119848140D01*
X119376359Y-119996113D01*
X119361202Y-120150000D01*
X110826298Y-120150000D01*
X110811141Y-119996113D01*
X110766254Y-119848140D01*
X110693362Y-119711767D01*
X110595264Y-119592236D01*
X110475733Y-119494138D01*
X110339360Y-119421246D01*
X110191387Y-119376359D01*
X110076061Y-119365000D01*
X110076060Y-119365000D01*
X110037500Y-119361202D01*
X109998939Y-119365000D01*
X96376060Y-119365000D01*
X96337500Y-119361202D01*
X96298939Y-119365000D01*
X96183613Y-119376359D01*
X96035640Y-119421246D01*
X95899267Y-119494138D01*
X95779736Y-119592236D01*
X95681638Y-119711767D01*
X95608746Y-119848140D01*
X95563859Y-119996113D01*
X95548702Y-120150000D01*
X85795376Y-120150000D01*
X85788233Y-120144138D01*
X85651860Y-120071246D01*
X85503887Y-120026359D01*
X85388561Y-120015000D01*
X85388560Y-120015000D01*
X85350000Y-120011202D01*
X85311439Y-120015000D01*
X73688560Y-120015000D01*
X73650000Y-120011202D01*
X73611439Y-120015000D01*
X73496113Y-120026359D01*
X73348140Y-120071246D01*
X73211767Y-120144138D01*
X73092236Y-120242236D01*
X72994138Y-120361767D01*
X72921246Y-120498140D01*
X72876359Y-120646113D01*
X72861202Y-120800000D01*
X63366250Y-120800000D01*
X63366250Y-91575000D01*
X71736202Y-91575000D01*
X71740000Y-91613561D01*
X71740001Y-105236429D01*
X71736202Y-105275000D01*
X71751359Y-105428887D01*
X71796246Y-105576860D01*
X71869138Y-105713233D01*
X71967236Y-105832764D01*
X72086767Y-105930862D01*
X72223140Y-106003754D01*
X72371113Y-106048641D01*
X72486439Y-106060000D01*
X72486440Y-106060000D01*
X72525000Y-106063798D01*
X72563561Y-106060000D01*
X86186440Y-106060000D01*
X86225000Y-106063798D01*
X86378887Y-106048641D01*
X86526860Y-106003754D01*
X86663233Y-105930862D01*
X86782764Y-105832764D01*
X86880862Y-105713233D01*
X86953754Y-105576860D01*
X86998641Y-105428887D01*
X87010000Y-105313561D01*
X87013798Y-105275000D01*
X87010000Y-105236439D01*
X87010000Y-91613561D01*
X87013798Y-91575000D01*
X95548702Y-91575000D01*
X95552500Y-91613561D01*
X95552501Y-105236429D01*
X95548702Y-105275000D01*
X95563859Y-105428887D01*
X95608746Y-105576860D01*
X95681638Y-105713233D01*
X95779736Y-105832764D01*
X95899267Y-105930862D01*
X96035640Y-106003754D01*
X96183613Y-106048641D01*
X96298939Y-106060000D01*
X96298940Y-106060000D01*
X96337500Y-106063798D01*
X96376061Y-106060000D01*
X109998940Y-106060000D01*
X110037500Y-106063798D01*
X110191387Y-106048641D01*
X110339360Y-106003754D01*
X110475733Y-105930862D01*
X110595264Y-105832764D01*
X110693362Y-105713233D01*
X110766254Y-105576860D01*
X110811141Y-105428887D01*
X110822500Y-105313561D01*
X110826298Y-105275000D01*
X110822500Y-105236439D01*
X110822500Y-91613561D01*
X110826298Y-91575000D01*
X119361202Y-91575000D01*
X119365000Y-91613561D01*
X119365001Y-105236429D01*
X119361202Y-105275000D01*
X119376359Y-105428887D01*
X119421246Y-105576860D01*
X119494138Y-105713233D01*
X119592236Y-105832764D01*
X119711767Y-105930862D01*
X119848140Y-106003754D01*
X119996113Y-106048641D01*
X120111439Y-106060000D01*
X120111440Y-106060000D01*
X120150000Y-106063798D01*
X120188561Y-106060000D01*
X133811440Y-106060000D01*
X133850000Y-106063798D01*
X134003887Y-106048641D01*
X134151860Y-106003754D01*
X134288233Y-105930862D01*
X134407764Y-105832764D01*
X134505862Y-105713233D01*
X134578754Y-105576860D01*
X134623641Y-105428887D01*
X134635000Y-105313561D01*
X134638798Y-105275000D01*
X134635000Y-105236439D01*
X134635000Y-91613561D01*
X134638798Y-91575000D01*
X143173702Y-91575000D01*
X143177500Y-91613561D01*
X143177501Y-105236429D01*
X143173702Y-105275000D01*
X143188859Y-105428887D01*
X143233746Y-105576860D01*
X143306638Y-105713233D01*
X143404736Y-105832764D01*
X143524267Y-105930862D01*
X143660640Y-106003754D01*
X143808613Y-106048641D01*
X143923939Y-106060000D01*
X143923940Y-106060000D01*
X143962500Y-106063798D01*
X144001061Y-106060000D01*
X157623940Y-106060000D01*
X157662500Y-106063798D01*
X157816387Y-106048641D01*
X157964360Y-106003754D01*
X158100733Y-105930862D01*
X158220264Y-105832764D01*
X158318362Y-105713233D01*
X158391254Y-105576860D01*
X158436141Y-105428887D01*
X158447500Y-105313561D01*
X158451298Y-105275000D01*
X158447500Y-105236439D01*
X158447500Y-91613561D01*
X158451298Y-91575000D01*
X166986202Y-91575000D01*
X166990000Y-91613561D01*
X166990001Y-105236429D01*
X166986202Y-105275000D01*
X167001359Y-105428887D01*
X167046246Y-105576860D01*
X167119138Y-105713233D01*
X167217236Y-105832764D01*
X167336767Y-105930862D01*
X167473140Y-106003754D01*
X167621113Y-106048641D01*
X167736439Y-106060000D01*
X167736440Y-106060000D01*
X167775000Y-106063798D01*
X167813561Y-106060000D01*
X181436440Y-106060000D01*
X181475000Y-106063798D01*
X181628887Y-106048641D01*
X181776860Y-106003754D01*
X181913233Y-105930862D01*
X182032764Y-105832764D01*
X182130862Y-105713233D01*
X182203754Y-105576860D01*
X182248641Y-105428887D01*
X182260000Y-105313561D01*
X182263798Y-105275000D01*
X182260000Y-105236439D01*
X182260000Y-91613561D01*
X182263798Y-91575000D01*
X190798702Y-91575000D01*
X190802500Y-91613561D01*
X190802501Y-105236429D01*
X190798702Y-105275000D01*
X190813859Y-105428887D01*
X190858746Y-105576860D01*
X190931638Y-105713233D01*
X191029736Y-105832764D01*
X191149267Y-105930862D01*
X191285640Y-106003754D01*
X191433613Y-106048641D01*
X191548939Y-106060000D01*
X191548940Y-106060000D01*
X191587500Y-106063798D01*
X191626061Y-106060000D01*
X205248940Y-106060000D01*
X205287500Y-106063798D01*
X205441387Y-106048641D01*
X205589360Y-106003754D01*
X205725733Y-105930862D01*
X205845264Y-105832764D01*
X205943362Y-105713233D01*
X206016254Y-105576860D01*
X206061141Y-105428887D01*
X206072500Y-105313561D01*
X206076298Y-105275000D01*
X206072500Y-105236439D01*
X206072500Y-91613561D01*
X206076298Y-91575000D01*
X206061141Y-91421113D01*
X206016254Y-91273140D01*
X205943362Y-91136767D01*
X205845264Y-91017236D01*
X205725733Y-90919138D01*
X205589360Y-90846246D01*
X205441387Y-90801359D01*
X205326061Y-90790000D01*
X205326060Y-90790000D01*
X205287500Y-90786202D01*
X205248939Y-90790000D01*
X191626060Y-90790000D01*
X191587500Y-90786202D01*
X191548939Y-90790000D01*
X191433613Y-90801359D01*
X191285640Y-90846246D01*
X191149267Y-90919138D01*
X191029736Y-91017236D01*
X190931638Y-91136767D01*
X190858746Y-91273140D01*
X190813859Y-91421113D01*
X190798702Y-91575000D01*
X182263798Y-91575000D01*
X182248641Y-91421113D01*
X182203754Y-91273140D01*
X182130862Y-91136767D01*
X182032764Y-91017236D01*
X181913233Y-90919138D01*
X181776860Y-90846246D01*
X181628887Y-90801359D01*
X181513561Y-90790000D01*
X181513560Y-90790000D01*
X181475000Y-90786202D01*
X181436439Y-90790000D01*
X167813560Y-90790000D01*
X167775000Y-90786202D01*
X167736439Y-90790000D01*
X167621113Y-90801359D01*
X167473140Y-90846246D01*
X167336767Y-90919138D01*
X167217236Y-91017236D01*
X167119138Y-91136767D01*
X167046246Y-91273140D01*
X167001359Y-91421113D01*
X166986202Y-91575000D01*
X158451298Y-91575000D01*
X158436141Y-91421113D01*
X158391254Y-91273140D01*
X158318362Y-91136767D01*
X158220264Y-91017236D01*
X158100733Y-90919138D01*
X157964360Y-90846246D01*
X157816387Y-90801359D01*
X157701061Y-90790000D01*
X157701060Y-90790000D01*
X157662500Y-90786202D01*
X157623939Y-90790000D01*
X144001060Y-90790000D01*
X143962500Y-90786202D01*
X143923939Y-90790000D01*
X143808613Y-90801359D01*
X143660640Y-90846246D01*
X143524267Y-90919138D01*
X143404736Y-91017236D01*
X143306638Y-91136767D01*
X143233746Y-91273140D01*
X143188859Y-91421113D01*
X143173702Y-91575000D01*
X134638798Y-91575000D01*
X134623641Y-91421113D01*
X134578754Y-91273140D01*
X134505862Y-91136767D01*
X134407764Y-91017236D01*
X134288233Y-90919138D01*
X134151860Y-90846246D01*
X134003887Y-90801359D01*
X133888561Y-90790000D01*
X133888560Y-90790000D01*
X133850000Y-90786202D01*
X133811439Y-90790000D01*
X120188560Y-90790000D01*
X120150000Y-90786202D01*
X120111439Y-90790000D01*
X119996113Y-90801359D01*
X119848140Y-90846246D01*
X119711767Y-90919138D01*
X119592236Y-91017236D01*
X119494138Y-91136767D01*
X119421246Y-91273140D01*
X119376359Y-91421113D01*
X119361202Y-91575000D01*
X110826298Y-91575000D01*
X110811141Y-91421113D01*
X110766254Y-91273140D01*
X110693362Y-91136767D01*
X110595264Y-91017236D01*
X110475733Y-90919138D01*
X110339360Y-90846246D01*
X110191387Y-90801359D01*
X110076061Y-90790000D01*
X110076060Y-90790000D01*
X110037500Y-90786202D01*
X109998939Y-90790000D01*
X96376060Y-90790000D01*
X96337500Y-90786202D01*
X96298939Y-90790000D01*
X96183613Y-90801359D01*
X96035640Y-90846246D01*
X95899267Y-90919138D01*
X95779736Y-91017236D01*
X95681638Y-91136767D01*
X95608746Y-91273140D01*
X95563859Y-91421113D01*
X95548702Y-91575000D01*
X87013798Y-91575000D01*
X86998641Y-91421113D01*
X86953754Y-91273140D01*
X86880862Y-91136767D01*
X86782764Y-91017236D01*
X86663233Y-90919138D01*
X86526860Y-90846246D01*
X86378887Y-90801359D01*
X86263561Y-90790000D01*
X86263560Y-90790000D01*
X86225000Y-90786202D01*
X86186439Y-90790000D01*
X72563560Y-90790000D01*
X72525000Y-90786202D01*
X72486439Y-90790000D01*
X72371113Y-90801359D01*
X72223140Y-90846246D01*
X72086767Y-90919138D01*
X71967236Y-91017236D01*
X71869138Y-91136767D01*
X71796246Y-91273140D01*
X71751359Y-91421113D01*
X71736202Y-91575000D01*
X63366250Y-91575000D01*
X63366250Y-73567714D01*
X63368906Y-73574126D01*
X63679162Y-74038457D01*
X64074043Y-74433338D01*
X64538374Y-74743594D01*
X65054311Y-74957302D01*
X65602027Y-75066250D01*
X66160473Y-75066250D01*
X66708189Y-74957302D01*
X67224126Y-74743594D01*
X67688457Y-74433338D01*
X68083338Y-74038457D01*
X68393594Y-73574126D01*
X68607302Y-73058189D01*
X68713360Y-72525000D01*
X71736202Y-72525000D01*
X71740000Y-72563561D01*
X71740001Y-86186429D01*
X71736202Y-86225000D01*
X71751359Y-86378887D01*
X71796246Y-86526860D01*
X71869138Y-86663233D01*
X71967236Y-86782764D01*
X72086767Y-86880862D01*
X72223140Y-86953754D01*
X72371113Y-86998641D01*
X72486439Y-87010000D01*
X72486440Y-87010000D01*
X72525000Y-87013798D01*
X72563561Y-87010000D01*
X86186440Y-87010000D01*
X86225000Y-87013798D01*
X86378887Y-86998641D01*
X86526860Y-86953754D01*
X86663233Y-86880862D01*
X86782764Y-86782764D01*
X86880862Y-86663233D01*
X86953754Y-86526860D01*
X86998641Y-86378887D01*
X87010000Y-86263561D01*
X87013798Y-86225000D01*
X87010000Y-86186439D01*
X87010000Y-72563561D01*
X87013798Y-72525000D01*
X95548702Y-72525000D01*
X95552500Y-72563561D01*
X95552501Y-86186429D01*
X95548702Y-86225000D01*
X95563859Y-86378887D01*
X95608746Y-86526860D01*
X95681638Y-86663233D01*
X95779736Y-86782764D01*
X95899267Y-86880862D01*
X96035640Y-86953754D01*
X96183613Y-86998641D01*
X96298939Y-87010000D01*
X96298940Y-87010000D01*
X96337500Y-87013798D01*
X96376061Y-87010000D01*
X109998940Y-87010000D01*
X110037500Y-87013798D01*
X110191387Y-86998641D01*
X110339360Y-86953754D01*
X110475733Y-86880862D01*
X110595264Y-86782764D01*
X110693362Y-86663233D01*
X110766254Y-86526860D01*
X110811141Y-86378887D01*
X110822500Y-86263561D01*
X110826298Y-86225000D01*
X110822500Y-86186439D01*
X110822500Y-72563561D01*
X110826298Y-72525000D01*
X119361202Y-72525000D01*
X119365000Y-72563561D01*
X119365001Y-86186429D01*
X119361202Y-86225000D01*
X119376359Y-86378887D01*
X119421246Y-86526860D01*
X119494138Y-86663233D01*
X119592236Y-86782764D01*
X119711767Y-86880862D01*
X119848140Y-86953754D01*
X119996113Y-86998641D01*
X120111439Y-87010000D01*
X120111440Y-87010000D01*
X120150000Y-87013798D01*
X120188561Y-87010000D01*
X133811440Y-87010000D01*
X133850000Y-87013798D01*
X134003887Y-86998641D01*
X134151860Y-86953754D01*
X134288233Y-86880862D01*
X134407764Y-86782764D01*
X134505862Y-86663233D01*
X134578754Y-86526860D01*
X134623641Y-86378887D01*
X134635000Y-86263561D01*
X134638798Y-86225000D01*
X134635000Y-86186439D01*
X134635000Y-72563561D01*
X134638798Y-72525000D01*
X143173702Y-72525000D01*
X143177500Y-72563561D01*
X143177501Y-86186429D01*
X143173702Y-86225000D01*
X143188859Y-86378887D01*
X143233746Y-86526860D01*
X143306638Y-86663233D01*
X143404736Y-86782764D01*
X143524267Y-86880862D01*
X143660640Y-86953754D01*
X143808613Y-86998641D01*
X143923939Y-87010000D01*
X143923940Y-87010000D01*
X143962500Y-87013798D01*
X144001061Y-87010000D01*
X157623940Y-87010000D01*
X157662500Y-87013798D01*
X157816387Y-86998641D01*
X157964360Y-86953754D01*
X158100733Y-86880862D01*
X158220264Y-86782764D01*
X158318362Y-86663233D01*
X158391254Y-86526860D01*
X158436141Y-86378887D01*
X158447500Y-86263561D01*
X158451298Y-86225000D01*
X158447500Y-86186439D01*
X158447500Y-72563561D01*
X158451298Y-72525000D01*
X166986202Y-72525000D01*
X166990000Y-72563561D01*
X166990001Y-86186429D01*
X166986202Y-86225000D01*
X167001359Y-86378887D01*
X167046246Y-86526860D01*
X167119138Y-86663233D01*
X167217236Y-86782764D01*
X167336767Y-86880862D01*
X167473140Y-86953754D01*
X167621113Y-86998641D01*
X167736439Y-87010000D01*
X167736440Y-87010000D01*
X167775000Y-87013798D01*
X167813561Y-87010000D01*
X181436440Y-87010000D01*
X181475000Y-87013798D01*
X181628887Y-86998641D01*
X181776860Y-86953754D01*
X181913233Y-86880862D01*
X182032764Y-86782764D01*
X182130862Y-86663233D01*
X182203754Y-86526860D01*
X182248641Y-86378887D01*
X182260000Y-86263561D01*
X182263798Y-86225000D01*
X182260000Y-86186439D01*
X182260000Y-72563561D01*
X182263798Y-72525000D01*
X190798702Y-72525000D01*
X190802500Y-72563561D01*
X190802501Y-86186429D01*
X190798702Y-86225000D01*
X190813859Y-86378887D01*
X190858746Y-86526860D01*
X190931638Y-86663233D01*
X191029736Y-86782764D01*
X191149267Y-86880862D01*
X191285640Y-86953754D01*
X191433613Y-86998641D01*
X191548939Y-87010000D01*
X191548940Y-87010000D01*
X191587500Y-87013798D01*
X191626061Y-87010000D01*
X205248940Y-87010000D01*
X205287500Y-87013798D01*
X205441387Y-86998641D01*
X205589360Y-86953754D01*
X205725733Y-86880862D01*
X205845264Y-86782764D01*
X205943362Y-86663233D01*
X206016254Y-86526860D01*
X206061141Y-86378887D01*
X206072500Y-86263561D01*
X206076298Y-86225000D01*
X206072500Y-86186439D01*
X206072500Y-72563561D01*
X206076298Y-72525000D01*
X206061141Y-72371113D01*
X206016254Y-72223140D01*
X205943362Y-72086767D01*
X205845264Y-71967236D01*
X205725733Y-71869138D01*
X205589360Y-71796246D01*
X205441387Y-71751359D01*
X205326061Y-71740000D01*
X205326060Y-71740000D01*
X205287500Y-71736202D01*
X205248939Y-71740000D01*
X191626060Y-71740000D01*
X191587500Y-71736202D01*
X191548939Y-71740000D01*
X191433613Y-71751359D01*
X191285640Y-71796246D01*
X191149267Y-71869138D01*
X191029736Y-71967236D01*
X190931638Y-72086767D01*
X190858746Y-72223140D01*
X190813859Y-72371113D01*
X190798702Y-72525000D01*
X182263798Y-72525000D01*
X182248641Y-72371113D01*
X182203754Y-72223140D01*
X182130862Y-72086767D01*
X182032764Y-71967236D01*
X181913233Y-71869138D01*
X181776860Y-71796246D01*
X181628887Y-71751359D01*
X181513561Y-71740000D01*
X181513560Y-71740000D01*
X181475000Y-71736202D01*
X181436439Y-71740000D01*
X167813560Y-71740000D01*
X167775000Y-71736202D01*
X167736439Y-71740000D01*
X167621113Y-71751359D01*
X167473140Y-71796246D01*
X167336767Y-71869138D01*
X167217236Y-71967236D01*
X167119138Y-72086767D01*
X167046246Y-72223140D01*
X167001359Y-72371113D01*
X166986202Y-72525000D01*
X158451298Y-72525000D01*
X158436141Y-72371113D01*
X158391254Y-72223140D01*
X158318362Y-72086767D01*
X158220264Y-71967236D01*
X158100733Y-71869138D01*
X157964360Y-71796246D01*
X157816387Y-71751359D01*
X157701061Y-71740000D01*
X157701060Y-71740000D01*
X157662500Y-71736202D01*
X157623939Y-71740000D01*
X144001060Y-71740000D01*
X143962500Y-71736202D01*
X143923939Y-71740000D01*
X143808613Y-71751359D01*
X143660640Y-71796246D01*
X143524267Y-71869138D01*
X143404736Y-71967236D01*
X143306638Y-72086767D01*
X143233746Y-72223140D01*
X143188859Y-72371113D01*
X143173702Y-72525000D01*
X134638798Y-72525000D01*
X134623641Y-72371113D01*
X134578754Y-72223140D01*
X134505862Y-72086767D01*
X134407764Y-71967236D01*
X134288233Y-71869138D01*
X134151860Y-71796246D01*
X134003887Y-71751359D01*
X133888561Y-71740000D01*
X133888560Y-71740000D01*
X133850000Y-71736202D01*
X133811439Y-71740000D01*
X120188560Y-71740000D01*
X120150000Y-71736202D01*
X120111439Y-71740000D01*
X119996113Y-71751359D01*
X119848140Y-71796246D01*
X119711767Y-71869138D01*
X119592236Y-71967236D01*
X119494138Y-72086767D01*
X119421246Y-72223140D01*
X119376359Y-72371113D01*
X119361202Y-72525000D01*
X110826298Y-72525000D01*
X110811141Y-72371113D01*
X110766254Y-72223140D01*
X110693362Y-72086767D01*
X110595264Y-71967236D01*
X110475733Y-71869138D01*
X110339360Y-71796246D01*
X110191387Y-71751359D01*
X110076061Y-71740000D01*
X110076060Y-71740000D01*
X110037500Y-71736202D01*
X109998939Y-71740000D01*
X96376060Y-71740000D01*
X96337500Y-71736202D01*
X96298939Y-71740000D01*
X96183613Y-71751359D01*
X96035640Y-71796246D01*
X95899267Y-71869138D01*
X95779736Y-71967236D01*
X95681638Y-72086767D01*
X95608746Y-72223140D01*
X95563859Y-72371113D01*
X95548702Y-72525000D01*
X87013798Y-72525000D01*
X86998641Y-72371113D01*
X86953754Y-72223140D01*
X86880862Y-72086767D01*
X86782764Y-71967236D01*
X86663233Y-71869138D01*
X86526860Y-71796246D01*
X86378887Y-71751359D01*
X86263561Y-71740000D01*
X86263560Y-71740000D01*
X86225000Y-71736202D01*
X86186439Y-71740000D01*
X72563560Y-71740000D01*
X72525000Y-71736202D01*
X72486439Y-71740000D01*
X72371113Y-71751359D01*
X72223140Y-71796246D01*
X72086767Y-71869138D01*
X71967236Y-71967236D01*
X71869138Y-72086767D01*
X71796246Y-72223140D01*
X71751359Y-72371113D01*
X71736202Y-72525000D01*
X68713360Y-72525000D01*
X68716250Y-72510473D01*
X68716250Y-71952027D01*
X68607302Y-71404311D01*
X68393594Y-70888374D01*
X68083338Y-70424043D01*
X67688457Y-70029162D01*
X67224126Y-69718906D01*
X67217714Y-69716250D01*
X210594786Y-69716250D01*
X210588374Y-69718906D01*
G37*
G04 #@! TD.AperFunction*
M02*
